587.452 320 240 1.00000 0.0 1 3.80427e-009 1.45411e-008 2.41921e-009 -2.23639e-005 1.23348e-005 -1.85671e-005
587.452 320 240 1.00000 0.0 1 5.09326e-009 2.25987e-008 5.87412e-009 -4.39969e-005 1.81268e-005 2.32453e-005
587.452 320 240 1.00000 0.0 1 9.47564e-009 1.38535e-008 1.08605e-009 -2.21835e-005 3.90381e-005 1.92434e-005
587.452 320 240 1.00000 0.0 1 7.8603e-009 1.25242e-008 3.92391e-010 -1.68984e-005 3.14516e-005 -1.27239e-005
587.452 320 240 1.00000 0.0 1 1.05207e-009 1.17015e-008 1.10523e-008 -2.27556e-006 2.71665e-006 8.27068e-006
587.452 320 240 1.00000 0.0 1 2.64896e-009 1.01698e-008 5.97405e-009 -1.32031e-006 8.74404e-006 1.13727e-005
587.452 320 240 1.00000 0.0 1 1.21943e-008 8.71699e-009 7.55062e-009 1.98244e-006 3.94585e-005 -1.39853e-005
587.452 320 240 1.00000 0.0 1 -7.65236e-009 2.54908e-008 3.31965e-010 -0.000114302 -5.99632e-005 -0.000179394
587.452 320 240 1.00000 0.0 1 9.83092e-009 8.01352e-009 1.13276e-008 -2.00175e-005 1.15564e-006 -0.000204522
587.452 320 240 1.00000 0.0 1 4.46201e-009 2.19716e-009 2.34449e-008 3.95888e-007 -3.16768e-005 -0.000222434
587.452 320 240 1.00000 0.0 1 1.09949e-008 1.27009e-009 2.94236e-008 1.06652e-005 -1.02234e-005 -0.000198425
587.452 320 240 1.00000 0.0 1 1.78159e-008 1.16252e-008 1.04699e-008 -2.41561e-005 3.93556e-005 -0.000158346
587.452 320 240 1.00000 0.0 1 1.52545e-008 1.04604e-009 -4.73265e-009 -3.59844e-006 3.87012e-005 -0.000183636
587.452 320 240 1.00000 0.0 1 1.36812e-008 -3.3531e-009 6.77123e-009 3.0047e-005 2.81152e-005 -0.000164488
587.452 320 240 1.00000 0.0 1 1.91798e-008 8.81598e-010 1.88047e-008 2.87687e-005 3.94851e-005 -0.000144685
587.452 320 240 1.00000 0.0 1 1.18565e-008 1.18657e-008 3.35817e-008 -9.57754e-006 -5.21903e-006 -0.000160528
587.452 320 240 1.00000 0.0 0.9997 -0.000413335 -0.0240208 0.00482392 -1.94879 0.932505 0.0266348
587.452 320 240 1.00000 0.0 0.999657 -0.000605675 -0.0256934 0.00501836 -2.1104 -0.414175 -5.43887
587.452 320 240 1.00000 0.0 0.99942 -0.000482263 -0.033452 0.0063958 1.88919 -0.222867 -6.38705
587.452 320 240 1.00000 0.0 0.999366 -0.000346834 -0.0349223 0.00695975 -1.10652 0.79108 -6.36695
587.452 320 240 1.00000 0.0 0.998741 -0.000594744 -0.0492747 0.00941682 -3.29216 0.480051 -3.49784
587.452 320 240 1.00000 0.0 0.998637 -0.000518334 -0.0512475 0.00992227 -1.78822 1.56662 -5.13854
587.452 320 240 1.00000 0.0 0.998631 -0.00041441 -0.0513768 0.00977367 -5.65176 2.3954 -2.14827
587.452 320 240 1.00000 0.0 0.997635 -0.000237208 -0.0674555 0.0131994 -6.07749 3.39857 -4.47691
587.452 320 240 1.00000 0.0 0.997449 -0.00118559 -0.0700674 0.0135967 -3.76866 0.635672 -4.59484
587.452 320 240 1.00000 0.0 0.996883 -0.000626092 -0.0775248 0.0146209 -6.72933 2.71994 -2.89959
587.452 320 240 1.00000 0.0 0.996672 -0.000597334 -0.0801788 0.0147239 -6.19773 3.50321 0.133837
587.452 320 240 1.00000 0.0 0.996278 -0.00131932 -0.0846598 0.0161869 -5.59974 0.784966 -3.70552
587.452 320 240 1.00000 0.0 0.995866 -0.00135753 -0.0892007 0.0170867 -5.14814 -0.438833 -12.3586
587.452 320 240 1.00000 0.0 0.99514 -0.00126964 -0.0967373 0.0183256 -3.43567 -1.68941 -18.9797
587.452 320 240 1.00000 0.0 0.994599 -0.000806951 -0.101874 0.0198451 2.22041 2.06379 -11.8235
587.452 320 240 1.00000 0.0 0.994282 -0.000627094 -0.104841 0.0202669 -9.36504 4.20939 -3.92262
587.452 320 240 1.00000 0.0 0.99346 -0.00141985 -0.112195 0.0211539 -0.682013 0.345469 -10.5296
587.452 320 240 1.00000 0.0 0.993193 -0.000899292 -0.114401 0.0218821 -4.2454 2.80448 -6.66748
587.452 320 240 1.00000 0.0 0.992766 -0.00250442 -0.118057 0.0217317 4.57829 -3.44026 -4.48668
587.452 320 240 1.00000 0.0 0.992894 -0.0032431 -0.117228 0.0202075 -2.89611 -4.88677 -4.69436
587.452 320 240 1.00000 0.0 0.991249 -0.00232837 -0.129689 0.0245136 9.42589 -3.67843 -14.5475
587.452 320 240 1.00000 0.0 0.990554 -0.00201565 -0.134538 0.0264154 7.04732 -0.892605 -7.96503
587.452 320 240 1.00000 0.0 0.990538 -0.00152237 -0.134802 0.0257044 -6.14908 4.63488 5.21539
587.452 320 240 1.00000 0.0 0.990375 -0.00120771 -0.135907 0.0261867 -9.07233 6.72306 7.10362
587.452 320 240 1.00000 0.0 0.988718 -0.00300249 -0.147018 0.0285248 8.63703 -4.11358 -11.3121
587.452 320 240 1.00000 0.0 0.987901 -0.00287111 -0.152226 0.0294878 10.1609 -2.53536 -5.16906
587.452 320 240 1.00000 0.0 0.986454 -0.00312987 -0.161349 0.029425 -7.92115 -2.28969 -9.04185
587.452 320 240 1.00000 0.0 0.985818 -0.0019464 -0.164852 0.0313562 -8.88748 2.52133 -8.11495
587.452 320 240 1.00000 0.0 0.984734 -0.00243571 -0.170639 0.0342968 7.038 -1.57088 -14.5395
587.452 320 240 1.00000 0.0 0.982872 -0.00275404 -0.1809 0.0350668 6.80635 -1.63958 -10.6518
587.452 320 240 1.00000 0.0 0.982746 -0.00271544 -0.181474 0.0356373 3.92286 -1.4418 -6.36258
587.452 320 240 1.00000 0.0 0.982578 -0.00352144 -0.182426 0.0353527 6.44782 -2.75846 -2.31328
587.452 320 240 1.00000 0.0 0.982693 -0.00293481 -0.181906 0.034878 6.54789 -1.99243 -10.526
587.452 320 240 1.00000 0.0 0.983374 -0.00169219 -0.178262 0.0345599 -13.8338 5.9608 5.95476
587.452 320 240 1.00000 0.0 0.983646 -0.00302022 -0.177062 0.0328794 -18.5402 0.0468261 -0.256387
587.452 320 240 1.00000 0.0 0.985782 -0.00138257 -0.165097 0.0312243 -76.7704 6.99132 2.0707
587.452 320 240 1.00000 0.0 0.966418 -0.0494514 -0.2514 0.0197114 324.977 -161.717 -68.3502
587.452 320 240 1.00000 0.0 0.985677 -0.00103459 -0.165731 0.0311957 -74.3205 8.13183 0.32594
587.452 320 240 1.00000 0.0 0.98553 -0.000944447 -0.166379 0.0323821 77.3172 -4.01238 16.4516
587.452 320 240 1.00000 0.0 0.986416 1.60885e-005 -0.161243 0.0313709 -92.4338 12.165 4.83182
587.452 320 240 1.00000 0.0 0.984724 -0.00143177 -0.170727 0.0341806 96.9456 -6.79449 15.1458
587.452 320 240 1.00000 0.0 0.978617 -0.0179141 -0.201859 0.0352284 144.645 -48.4267 67.4503
587.452 320 240 1.00000 0.0 0.977871 -0.00622306 -0.205 0.0412817 192.807 -17.6707 24.1901
587.452 320 240 1.00000 0.0 0.988994 0.00558704 -0.144687 0.0304183 -160.92 35.0061 23.1115
587.452 320 240 1.00000 0.0 0.980602 -0.00876518 -0.190417 0.0456643 42.8731 -25.1699 -58.9548
587.452 320 240 1.00000 0.0 0.984699 0.000568328 -0.168068 0.0460541 -64.638 21.9622 -7.29175
587.452 320 240 1.00000 0.0 0.979485 -0.0080875 -0.195777 0.0470741 56.9881 -15.3646 -24.98
587.452 320 240 1.00000 0.0 0.980349 -0.0164105 -0.190098 0.0500884 -7.69487 -10.2336 127.211
587.452 320 240 1.00000 0.0 0.980567 -0.0205957 -0.189078 0.0481036 40.3508 -70.5007 -48.7824
587.452 320 240 1.00000 0.0 0.980667 -0.0302112 -0.186524 0.0508735 33.7859 -108.758 -45.1697
587.452 320 240 1.00000 0.0 0.983657 0.034966 -0.166176 0.0598503 -147.538 239.719 144.09
frame Num : 0
cornerIdx : 0	605	197
cornerIdx : 1	607	200
cornerIdx : 2	498	246
cornerIdx : 3	114	275
cornerIdx : 4	138	275
cornerIdx : 5	451	328
cornerIdx : 6	469	331
cornerIdx : 7	474	332
cornerIdx : 8	465	333
cornerIdx : 9	470	336
cornerIdx : 10	472	336
cornerIdx : 11	459	338
cornerIdx : 12	470	341
cornerIdx : 13	319	342
cornerIdx : 14	462	342
cornerIdx : 15	483	342
cornerIdx : 16	489	342
cornerIdx : 17	432	344
cornerIdx : 18	480	344
cornerIdx : 19	541	347
cornerIdx : 20	420	348
cornerIdx : 21	313	351
cornerIdx : 22	315	351
cornerIdx : 23	497	352
cornerIdx : 24	497	354
cornerIdx : 25	314	355
cornerIdx : 26	444	359
cornerIdx : 27	321	361
cornerIdx : 28	335	361
cornerIdx : 29	202	363
cornerIdx : 30	333	365
cornerIdx : 31	353	365
cornerIdx : 32	356	367
cornerIdx : 33	444	367
cornerIdx : 34	357	369
cornerIdx : 35	269	370
cornerIdx : 36	443	370
cornerIdx : 37	210	371
cornerIdx : 38	222	371
cornerIdx : 39	230	371
cornerIdx : 40	281	372
cornerIdx : 41	445	372
cornerIdx : 42	374	374
cornerIdx : 43	393	374
cornerIdx : 44	533	374
cornerIdx : 45	292	375
cornerIdx : 46	442	376
cornerIdx : 47	274	377
cornerIdx : 48	318	377
cornerIdx : 49	373	377
cornerIdx : 50	246	378
cornerIdx : 51	293	378
cornerIdx : 52	238	379
cornerIdx : 53	528	379
cornerIdx : 54	228	380
cornerIdx : 55	588	380
cornerIdx : 56	486	383
cornerIdx : 57	426	395
cornerIdx : 58	429	395
cornerIdx : 59	355	428
cornerIdx : 60	354	432
frame Num : 1
cornerIdx : 1	607	200
cornerIdx : 3	114	275
cornerIdx : 5	451	328
cornerIdx : 6	469	331
cornerIdx : 8	465	333
cornerIdx : 9	470	336
cornerIdx : 10	472	336
cornerIdx : 11	459	338
cornerIdx : 14	462	342
cornerIdx : 15	483	342
cornerIdx : 23	497	352
cornerIdx : 25	314	355
cornerIdx : 27	321	361
cornerIdx : 28	335	361
cornerIdx : 32	356	367
cornerIdx : 35	269	370
cornerIdx : 36	443	370
cornerIdx : 41	445	372
cornerIdx : 45	292	375
cornerIdx : 46	442	376
cornerIdx : 47	274	377
cornerIdx : 48	318	377
cornerIdx : 54	228	380
cornerIdx : 57	426	395
cornerIdx : 60	354	432
cornerIdx : 61	122	288
cornerIdx : 62	51	307
frame Num : 2
cornerIdx : 1	607	200
cornerIdx : 3	114	275
cornerIdx : 4	138	275
cornerIdx : 5	451	328
cornerIdx : 6	469	331
cornerIdx : 8	465	333
cornerIdx : 10	472	336
cornerIdx : 12	470	341
cornerIdx : 14	462	342
cornerIdx : 15	483	342
cornerIdx : 19	541	347
cornerIdx : 23	497	352
cornerIdx : 25	314	355
cornerIdx : 27	321	361
cornerIdx : 28	335	361
cornerIdx : 30	333	365
cornerIdx : 35	269	370
cornerIdx : 36	443	370
cornerIdx : 41	445	372
cornerIdx : 45	292	375
cornerIdx : 46	442	376
cornerIdx : 47	274	377
cornerIdx : 52	238	379
cornerIdx : 54	228	380
cornerIdx : 56	486	383
cornerIdx : 57	426	395
cornerIdx : 58	429	395
cornerIdx : 63	400	358
frame Num : 3
cornerIdx : 0	605	197
cornerIdx : 1	607	200
cornerIdx : 3	114	275
cornerIdx : 4	138	275
cornerIdx : 6	469	331
cornerIdx : 8	465	333
cornerIdx : 10	472	336
cornerIdx : 12	470	341
cornerIdx : 14	462	342
cornerIdx : 15	483	342
cornerIdx : 24	497	354
cornerIdx : 26	444	359
cornerIdx : 27	321	361
cornerIdx : 28	335	361
cornerIdx : 30	333	365
cornerIdx : 31	353	365
cornerIdx : 32	356	367
cornerIdx : 35	269	370
cornerIdx : 36	443	370
cornerIdx : 45	292	375
cornerIdx : 46	442	376
cornerIdx : 47	274	377
cornerIdx : 49	373	377
cornerIdx : 52	238	379
cornerIdx : 57	426	395
cornerIdx : 59	355	428
cornerIdx : 60	354	432
cornerIdx : 64	545	282
frame Num : 4
cornerIdx : 1	607	200
cornerIdx : 3	114	275
cornerIdx : 5	451	328
cornerIdx : 6	469	331
cornerIdx : 7	474	332
cornerIdx : 8	465	333
cornerIdx : 10	472	336
cornerIdx : 11	459	338
cornerIdx : 12	470	341
cornerIdx : 14	462	342
cornerIdx : 15	483	342
cornerIdx : 25	314	355
cornerIdx : 27	321	361
cornerIdx : 28	335	361
cornerIdx : 30	333	365
cornerIdx : 31	353	365
cornerIdx : 35	269	370
cornerIdx : 37	210	371
cornerIdx : 39	230	371
cornerIdx : 41	445	372
cornerIdx : 43	393	374
cornerIdx : 45	292	375
cornerIdx : 47	274	377
cornerIdx : 48	318	377
cornerIdx : 52	238	379
cornerIdx : 54	228	380
cornerIdx : 57	426	395
cornerIdx : 65	498	243
frame Num : 5
cornerIdx : 1	607	200
cornerIdx : 5	451	328
cornerIdx : 8	465	333
cornerIdx : 10	472	336
cornerIdx : 11	459	338
cornerIdx : 12	470	341
cornerIdx : 14	462	342
cornerIdx : 15	483	342
cornerIdx : 22	315	351
cornerIdx : 24	497	354
cornerIdx : 25	314	355
cornerIdx : 27	321	361
cornerIdx : 28	335	361
cornerIdx : 30	333	365
cornerIdx : 32	356	367
cornerIdx : 35	269	370
cornerIdx : 36	443	370
cornerIdx : 39	230	371
cornerIdx : 41	445	372
cornerIdx : 45	292	375
cornerIdx : 46	442	376
cornerIdx : 47	274	377
cornerIdx : 50	246	378
cornerIdx : 52	238	379
cornerIdx : 54	228	380
cornerIdx : 56	486	383
cornerIdx : 57	426	395
cornerIdx : 58	429	395
cornerIdx : 66	474	319
frame Num : 6
cornerIdx : 1	607	200
cornerIdx : 5	451	328
cornerIdx : 7	474	332
cornerIdx : 10	472	336
cornerIdx : 12	470	341
cornerIdx : 14	462	342
cornerIdx : 15	483	342
cornerIdx : 19	541	347
cornerIdx : 23	497	352
cornerIdx : 25	314	355
cornerIdx : 27	321	361
cornerIdx : 28	335	361
cornerIdx : 31	353	365
cornerIdx : 32	356	367
cornerIdx : 34	357	369
cornerIdx : 35	269	370
cornerIdx : 39	230	371
cornerIdx : 41	445	372
cornerIdx : 45	292	375
cornerIdx : 46	442	376
cornerIdx : 47	274	377
cornerIdx : 48	318	377
cornerIdx : 49	373	377
cornerIdx : 52	238	379
cornerIdx : 56	486	383
cornerIdx : 57	426	395
cornerIdx : 59	355	428
cornerIdx : 67	358	253
frame Num : 7
cornerIdx : 0	605	197
cornerIdx : 1	607	200
cornerIdx : 5	451	328
cornerIdx : 6	469	331
cornerIdx : 7	474	332
cornerIdx : 8	465	333
cornerIdx : 9	470	336
cornerIdx : 10	472	336
cornerIdx : 12	470	341
cornerIdx : 14	462	342
cornerIdx : 15	483	342
cornerIdx : 16	489	342
cornerIdx : 17	432	344
cornerIdx : 19	541	347
cornerIdx : 20	420	348
cornerIdx : 23	497	352
cornerIdx : 24	497	354
cornerIdx : 27	321	361
cornerIdx : 31	353	365
cornerIdx : 32	356	367
cornerIdx : 41	445	372
cornerIdx : 42	374	374
cornerIdx : 46	442	376
cornerIdx : 49	373	377
cornerIdx : 55	588	380
cornerIdx : 56	486	383
cornerIdx : 57	426	395
cornerIdx : 58	429	395
cornerIdx : 68	589	382
frame Num : 8
cornerIdx : 5	451	328
cornerIdx : 7	474	332
cornerIdx : 8	465	333
cornerIdx : 9	470	336
cornerIdx : 10	472	336
cornerIdx : 11	459	338
cornerIdx : 12	470	341
cornerIdx : 14	462	342
cornerIdx : 15	483	342
cornerIdx : 16	489	342
cornerIdx : 17	432	344
cornerIdx : 18	480	344
cornerIdx : 19	541	347
cornerIdx : 20	420	348
cornerIdx : 23	497	352
cornerIdx : 24	497	354
cornerIdx : 27	321	361
cornerIdx : 28	335	361
cornerIdx : 31	353	365
cornerIdx : 32	356	367
cornerIdx : 41	445	372
cornerIdx : 42	374	374
cornerIdx : 49	373	377
cornerIdx : 55	588	380
cornerIdx : 56	486	383
cornerIdx : 57	426	395
cornerIdx : 59	355	428
cornerIdx : 60	354	432
cornerIdx : 68	589	382
cornerIdx : 69	353	431
frame Num : 9
cornerIdx : 1	607	200
cornerIdx : 5	451	328
cornerIdx : 6	469	331
cornerIdx : 7	474	332
cornerIdx : 8	465	333
cornerIdx : 9	470	336
cornerIdx : 10	472	336
cornerIdx : 11	459	338
cornerIdx : 12	470	341
cornerIdx : 14	462	342
cornerIdx : 15	483	342
cornerIdx : 16	489	342
cornerIdx : 18	480	344
cornerIdx : 19	541	347
cornerIdx : 20	420	348
cornerIdx : 23	497	352
cornerIdx : 25	314	355
cornerIdx : 26	444	359
cornerIdx : 27	321	361
cornerIdx : 31	353	365
cornerIdx : 32	356	367
cornerIdx : 42	374	374
cornerIdx : 43	393	374
cornerIdx : 49	373	377
cornerIdx : 53	528	379
cornerIdx : 56	486	383
cornerIdx : 57	426	395
cornerIdx : 65	498	243
cornerIdx : 68	589	382
cornerIdx : 70	560	325
frame Num : 10
cornerIdx : 1	607	200
cornerIdx : 2	498	246
cornerIdx : 5	451	328
cornerIdx : 6	469	331
cornerIdx : 7	474	332
cornerIdx : 8	465	333
cornerIdx : 10	472	336
cornerIdx : 12	470	341
cornerIdx : 14	462	342
cornerIdx : 15	483	342
cornerIdx : 16	489	342
cornerIdx : 17	432	344
cornerIdx : 18	480	344
cornerIdx : 19	541	347
cornerIdx : 20	420	348
cornerIdx : 23	497	352
cornerIdx : 25	314	355
cornerIdx : 27	321	361
cornerIdx : 32	356	367
cornerIdx : 35	269	370
cornerIdx : 41	445	372
cornerIdx : 42	374	374
cornerIdx : 46	442	376
cornerIdx : 48	318	377
cornerIdx : 49	373	377
cornerIdx : 55	588	380
cornerIdx : 56	486	383
cornerIdx : 58	429	395
cornerIdx : 68	589	382
cornerIdx : 71	287	264
frame Num : 11
cornerIdx : 0	605	197
cornerIdx : 1	607	200
cornerIdx : 5	451	328
cornerIdx : 6	469	331
cornerIdx : 7	474	332
cornerIdx : 8	465	333
cornerIdx : 9	470	336
cornerIdx : 10	472	336
cornerIdx : 11	459	338
cornerIdx : 12	470	341
cornerIdx : 14	462	342
cornerIdx : 15	483	342
cornerIdx : 16	489	342
cornerIdx : 19	541	347
cornerIdx : 20	420	348
cornerIdx : 23	497	352
cornerIdx : 25	314	355
cornerIdx : 27	321	361
cornerIdx : 32	356	367
cornerIdx : 35	269	370
cornerIdx : 41	445	372
cornerIdx : 42	374	374
cornerIdx : 49	373	377
cornerIdx : 55	588	380
cornerIdx : 56	486	383
cornerIdx : 57	426	395
cornerIdx : 65	498	243
cornerIdx : 68	589	382
cornerIdx : 69	353	431
cornerIdx : 72	606	198
frame Num : 12
cornerIdx : 1	607	200
cornerIdx : 5	451	328
cornerIdx : 6	469	331
cornerIdx : 7	474	332
cornerIdx : 8	465	333
cornerIdx : 10	472	336
cornerIdx : 11	459	338
cornerIdx : 12	470	341
cornerIdx : 14	462	342
cornerIdx : 15	483	342
cornerIdx : 16	489	342
cornerIdx : 17	432	344
cornerIdx : 18	480	344
cornerIdx : 19	541	347
cornerIdx : 20	420	348
cornerIdx : 23	497	352
cornerIdx : 24	497	354
cornerIdx : 26	444	359
cornerIdx : 27	321	361
cornerIdx : 31	353	365
cornerIdx : 32	356	367
cornerIdx : 42	374	374
cornerIdx : 46	442	376
cornerIdx : 49	373	377
cornerIdx : 55	588	380
cornerIdx : 56	486	383
cornerIdx : 57	426	395
cornerIdx : 68	589	382
cornerIdx : 69	353	431
cornerIdx : 72	606	198
cornerIdx : 73	79	459
frame Num : 13
cornerIdx : 0	605	197
cornerIdx : 1	607	200
cornerIdx : 5	451	328
cornerIdx : 8	465	333
cornerIdx : 10	472	336
cornerIdx : 12	470	341
cornerIdx : 14	462	342
cornerIdx : 15	483	342
cornerIdx : 16	489	342
cornerIdx : 17	432	344
cornerIdx : 18	480	344
cornerIdx : 19	541	347
cornerIdx : 23	497	352
cornerIdx : 24	497	354
cornerIdx : 25	314	355
cornerIdx : 26	444	359
cornerIdx : 27	321	361
cornerIdx : 28	335	361
cornerIdx : 31	353	365
cornerIdx : 32	356	367
cornerIdx : 35	269	370
cornerIdx : 42	374	374
cornerIdx : 46	442	376
cornerIdx : 49	373	377
cornerIdx : 55	588	380
cornerIdx : 56	486	383
cornerIdx : 57	426	395
cornerIdx : 59	355	428
cornerIdx : 68	589	382
cornerIdx : 72	606	198
cornerIdx : 74	166	275
frame Num : 14
cornerIdx : 0	605	197
cornerIdx : 1	607	200
cornerIdx : 5	451	328
cornerIdx : 6	469	331
cornerIdx : 8	465	333
cornerIdx : 10	472	336
cornerIdx : 12	470	341
cornerIdx : 14	462	342
cornerIdx : 15	483	342
cornerIdx : 16	489	342
cornerIdx : 17	432	344
cornerIdx : 19	541	347
cornerIdx : 20	420	348
cornerIdx : 23	497	352
cornerIdx : 24	497	354
cornerIdx : 25	314	355
cornerIdx : 26	444	359
cornerIdx : 27	321	361
cornerIdx : 28	335	361
cornerIdx : 31	353	365
cornerIdx : 32	356	367
cornerIdx : 34	357	369
cornerIdx : 42	374	374
cornerIdx : 49	373	377
cornerIdx : 53	528	379
cornerIdx : 55	588	380
cornerIdx : 56	486	383
cornerIdx : 57	426	395
cornerIdx : 59	355	428
cornerIdx : 60	354	432
cornerIdx : 68	589	382
cornerIdx : 72	606	198
cornerIdx : 74	166	275
cornerIdx : 75	177	374
frame Num : 15
cornerIdx : 5	451	328
cornerIdx : 7	474	332
cornerIdx : 8	465	333
cornerIdx : 10	472	336
cornerIdx : 12	470	341
cornerIdx : 14	462	342
cornerIdx : 15	483	342
cornerIdx : 16	489	342
cornerIdx : 18	480	344
cornerIdx : 19	541	347
cornerIdx : 23	497	352
cornerIdx : 24	497	354
cornerIdx : 25	314	355
cornerIdx : 26	444	359
cornerIdx : 27	321	361
cornerIdx : 28	335	361
cornerIdx : 31	353	365
cornerIdx : 32	356	367
cornerIdx : 42	374	374
cornerIdx : 46	442	376
cornerIdx : 48	318	377
cornerIdx : 49	373	377
cornerIdx : 53	528	379
cornerIdx : 55	588	380
cornerIdx : 56	486	383
cornerIdx : 57	426	395
cornerIdx : 59	355	428
cornerIdx : 60	354	432
cornerIdx : 65	498	243
cornerIdx : 68	589	382
cornerIdx : 74	166	275
cornerIdx : 76	624	352
frame Num : 16
cornerIdx : 1	574	204
cornerIdx : 2	467	248
cornerIdx : 6	438	332
cornerIdx : 8	434	334
cornerIdx : 10	441	337
cornerIdx : 12	439	342
cornerIdx : 13	289	343
cornerIdx : 14	431	343
cornerIdx : 15	451	343
cornerIdx : 19	508	348
cornerIdx : 21	283	352
cornerIdx : 22	285	352
cornerIdx : 24	465	355
cornerIdx : 26	413	360
cornerIdx : 27	291	362
cornerIdx : 31	323	366
cornerIdx : 35	239	371
cornerIdx : 37	179	372
cornerIdx : 38	191	372
cornerIdx : 39	199	372
cornerIdx : 47	243	378
cornerIdx : 48	288	378
cornerIdx : 50	215	379
cornerIdx : 51	263	379
cornerIdx : 54	197	381
cornerIdx : 57	394	395
cornerIdx : 58	397	395
cornerIdx : 59	324	429
cornerIdx : 65	467	245
cornerIdx : 66	443	320
cornerIdx : 69	322	432
cornerIdx : 77	528	302
frame Num : 17
cornerIdx : 0	569	201
cornerIdx : 1	571	204
cornerIdx : 2	465	248
cornerIdx : 6	436	332
cornerIdx : 8	432	334
cornerIdx : 12	437	342
cornerIdx : 13	287	343
cornerIdx : 14	429	343
cornerIdx : 15	449	343
cornerIdx : 19	506	348
cornerIdx : 21	281	352
cornerIdx : 22	283	352
cornerIdx : 23	463	353
cornerIdx : 24	463	355
cornerIdx : 25	282	356
cornerIdx : 26	411	360
cornerIdx : 27	289	362
cornerIdx : 31	321	366
cornerIdx : 32	324	369
cornerIdx : 41	412	373
cornerIdx : 46	409	377
cornerIdx : 48	286	378
cornerIdx : 51	261	379
cornerIdx : 55	551	381
cornerIdx : 57	393	396
cornerIdx : 59	322	429
cornerIdx : 60	321	433
cornerIdx : 63	368	359
cornerIdx : 65	465	245
cornerIdx : 69	320	432
cornerIdx : 72	571	202
cornerIdx : 76	586	353
cornerIdx : 78	604	383
frame Num : 18
cornerIdx : 0	560	202
cornerIdx : 1	562	205
cornerIdx : 5	410	329
cornerIdx : 11	418	340
cornerIdx : 12	428	342
cornerIdx : 13	279	343
cornerIdx : 15	441	343
cornerIdx : 16	447	343
cornerIdx : 17	391	345
cornerIdx : 18	438	345
cornerIdx : 19	497	348
cornerIdx : 21	273	352
cornerIdx : 22	275	352
cornerIdx : 23	454	353
cornerIdx : 24	454	355
cornerIdx : 25	274	356
cornerIdx : 27	281	362
cornerIdx : 28	295	362
cornerIdx : 31	312	365
cornerIdx : 34	316	369
cornerIdx : 42	333	375
cornerIdx : 43	352	375
cornerIdx : 46	401	377
cornerIdx : 48	277	378
cornerIdx : 49	332	378
cornerIdx : 54	185	382
cornerIdx : 57	385	396
cornerIdx : 65	457	245
cornerIdx : 67	319	254
cornerIdx : 68	543	382
cornerIdx : 69	312	432
cornerIdx : 78	594	383
cornerIdx : 79	122	294
frame Num : 19
cornerIdx : 0	557	202
cornerIdx : 1	559	205
cornerIdx : 2	454	249
cornerIdx : 4	91	274
cornerIdx : 5	407	329
cornerIdx : 8	421	335
cornerIdx : 11	415	340
cornerIdx : 12	425	342
cornerIdx : 13	276	343
cornerIdx : 15	438	343
cornerIdx : 16	444	343
cornerIdx : 18	435	345
cornerIdx : 19	494	348
cornerIdx : 21	270	352
cornerIdx : 22	272	352
cornerIdx : 23	451	353
cornerIdx : 24	451	355
cornerIdx : 25	271	356
cornerIdx : 34	313	369
cornerIdx : 38	177	373
cornerIdx : 43	349	375
cornerIdx : 46	398	377
cornerIdx : 47	230	379
cornerIdx : 49	329	378
cornerIdx : 52	192	381
cornerIdx : 53	481	380
cornerIdx : 56	440	384
cornerIdx : 65	454	246
cornerIdx : 71	245	264
cornerIdx : 72	559	203
cornerIdx : 76	574	354
cornerIdx : 77	514	303
cornerIdx : 78	591	383
cornerIdx : 80	334	366
frame Num : 20
cornerIdx : 0	538	204
cornerIdx : 1	540	207
cornerIdx : 7	411	333
cornerIdx : 8	402	334
cornerIdx : 11	396	339
cornerIdx : 13	257	343
cornerIdx : 15	419	343
cornerIdx : 17	370	345
cornerIdx : 18	416	345
cornerIdx : 19	474	348
cornerIdx : 20	358	349
cornerIdx : 21	251	352
cornerIdx : 23	432	353
cornerIdx : 24	432	355
cornerIdx : 25	252	356
cornerIdx : 26	381	360
cornerIdx : 31	291	366
cornerIdx : 32	294	369
cornerIdx : 37	145	373
cornerIdx : 38	158	373
cornerIdx : 39	166	373
cornerIdx : 41	382	373
cornerIdx : 42	312	375
cornerIdx : 43	331	375
cornerIdx : 46	379	377
cornerIdx : 47	211	379
cornerIdx : 49	311	378
cornerIdx : 57	363	396
cornerIdx : 65	436	246
cornerIdx : 74	102	274
cornerIdx : 76	553	354
cornerIdx : 77	494	303
cornerIdx : 78	570	383
cornerIdx : 81	626	200
frame Num : 21
cornerIdx : 0	535	204
cornerIdx : 1	537	207
cornerIdx : 8	400	335
cornerIdx : 10	407	338
cornerIdx : 11	394	340
cornerIdx : 12	405	343
cornerIdx : 14	397	344
cornerIdx : 15	417	344
cornerIdx : 19	472	349
cornerIdx : 21	249	353
cornerIdx : 24	430	355
cornerIdx : 31	289	366
cornerIdx : 32	292	369
cornerIdx : 35	204	372
cornerIdx : 37	143	373
cornerIdx : 38	156	373
cornerIdx : 39	164	373
cornerIdx : 40	216	374
cornerIdx : 41	380	373
cornerIdx : 42	310	375
cornerIdx : 47	209	379
cornerIdx : 48	254	379
cornerIdx : 49	309	378
cornerIdx : 51	228	380
cornerIdx : 53	460	380
cornerIdx : 56	419	384
cornerIdx : 57	361	396
cornerIdx : 65	433	247
cornerIdx : 69	288	433
cornerIdx : 72	537	205
cornerIdx : 76	551	354
cornerIdx : 77	492	303
cornerIdx : 78	567	383
cornerIdx : 82	384	329
frame Num : 22
cornerIdx : 0	534	204
cornerIdx : 1	536	207
cornerIdx : 2	432	250
cornerIdx : 5	385	330
cornerIdx : 7	407	334
cornerIdx : 10	405	338
cornerIdx : 11	393	340
cornerIdx : 12	403	343
cornerIdx : 15	416	343
cornerIdx : 18	413	345
cornerIdx : 19	471	349
cornerIdx : 20	355	349
cornerIdx : 32	290	368
cornerIdx : 35	203	372
cornerIdx : 37	142	373
cornerIdx : 38	155	373
cornerIdx : 39	163	373
cornerIdx : 40	214	374
cornerIdx : 46	376	377
cornerIdx : 47	207	379
cornerIdx : 48	252	379
cornerIdx : 50	179	380
cornerIdx : 51	227	380
cornerIdx : 52	171	381
cornerIdx : 56	418	384
cornerIdx : 57	359	396
cornerIdx : 58	362	396
cornerIdx : 59	288	430
cornerIdx : 60	287	434
cornerIdx : 72	535	205
cornerIdx : 74	98	274
cornerIdx : 76	549	354
cornerIdx : 78	566	383
cornerIdx : 82	383	329
cornerIdx : 83	294	253
frame Num : 23
cornerIdx : 0	514	206
cornerIdx : 1	516	209
cornerIdx : 7	387	334
cornerIdx : 8	379	335
cornerIdx : 12	383	343
cornerIdx : 13	234	344
cornerIdx : 14	375	344
cornerIdx : 16	402	344
cornerIdx : 17	347	346
cornerIdx : 18	393	346
cornerIdx : 19	450	349
cornerIdx : 21	227	353
cornerIdx : 22	230	353
cornerIdx : 24	408	356
cornerIdx : 25	228	357
cornerIdx : 27	235	363
cornerIdx : 34	271	370
cornerIdx : 38	133	374
cornerIdx : 41	358	373
cornerIdx : 47	186	380
cornerIdx : 48	232	379
cornerIdx : 53	437	380
cornerIdx : 54	138	383
cornerIdx : 56	397	384
cornerIdx : 57	339	396
cornerIdx : 65	413	247
cornerIdx : 66	388	322
cornerIdx : 67	276	254
cornerIdx : 72	514	207
cornerIdx : 74	77	273
cornerIdx : 76	527	354
cornerIdx : 78	543	383
cornerIdx : 81	599	203
cornerIdx : 82	363	329
cornerIdx : 84	326	224
frame Num : 24
cornerIdx : 0	511	207
cornerIdx : 1	513	210
cornerIdx : 8	376	335
cornerIdx : 13	231	344
cornerIdx : 15	393	344
cornerIdx : 16	399	344
cornerIdx : 17	344	346
cornerIdx : 18	390	346
cornerIdx : 19	447	349
cornerIdx : 21	225	353
cornerIdx : 22	227	353
cornerIdx : 23	406	354
cornerIdx : 24	406	356
cornerIdx : 25	226	357
cornerIdx : 26	355	361
cornerIdx : 32	268	370
cornerIdx : 37	117	374
cornerIdx : 38	130	374
cornerIdx : 39	138	374
cornerIdx : 42	286	376
cornerIdx : 47	183	380
cornerIdx : 49	285	379
cornerIdx : 50	155	381
cornerIdx : 52	146	382
cornerIdx : 55	490	381
cornerIdx : 56	395	384
cornerIdx : 57	336	396
cornerIdx : 63	313	360
cornerIdx : 65	410	248
cornerIdx : 68	491	383
cornerIdx : 74	73	273
cornerIdx : 76	524	354
cornerIdx : 81	596	204
cornerIdx : 82	360	330
cornerIdx : 85	490	215
frame Num : 25
cornerIdx : 0	500	207
cornerIdx : 1	502	210
cornerIdx : 4	30	272
cornerIdx : 6	370	333
cornerIdx : 8	366	335
cornerIdx : 11	360	340
cornerIdx : 12	370	343
cornerIdx : 13	221	344
cornerIdx : 14	363	344
cornerIdx : 15	383	344
cornerIdx : 16	389	344
cornerIdx : 17	334	346
cornerIdx : 18	380	346
cornerIdx : 19	437	349
cornerIdx : 21	214	353
cornerIdx : 22	216	353
cornerIdx : 23	396	354
cornerIdx : 24	396	356
cornerIdx : 25	215	357
cornerIdx : 26	345	361
cornerIdx : 35	169	373
cornerIdx : 37	106	374
cornerIdx : 38	119	374
cornerIdx : 39	127	374
cornerIdx : 47	173	380
cornerIdx : 49	275	379
cornerIdx : 50	144	381
cornerIdx : 55	479	381
cornerIdx : 56	385	384
cornerIdx : 63	303	360
cornerIdx : 65	400	248
cornerIdx : 76	513	354
cornerIdx : 78	529	383
cornerIdx : 82	350	330
cornerIdx : 84	314	224
cornerIdx : 86	213	275
cornerIdx : 87	388	406
frame Num : 26
cornerIdx : 1	499	210
cornerIdx : 2	397	251
cornerIdx : 4	27	272
cornerIdx : 8	363	335
cornerIdx : 11	357	340
cornerIdx : 13	218	344
cornerIdx : 14	360	344
cornerIdx : 15	380	344
cornerIdx : 16	386	344
cornerIdx : 18	377	346
cornerIdx : 19	434	349
cornerIdx : 21	212	353
cornerIdx : 22	214	353
cornerIdx : 23	393	354
cornerIdx : 24	393	356
cornerIdx : 25	213	357
cornerIdx : 26	342	361
cornerIdx : 35	166	373
cornerIdx : 37	103	374
cornerIdx : 38	116	374
cornerIdx : 39	124	374
cornerIdx : 42	273	376
cornerIdx : 43	292	376
cornerIdx : 47	170	380
cornerIdx : 48	215	380
cornerIdx : 49	272	379
cornerIdx : 51	190	381
cornerIdx : 55	476	381
cornerIdx : 56	381	384
cornerIdx : 63	300	360
cornerIdx : 65	397	248
cornerIdx : 67	261	254
cornerIdx : 82	347	330
cornerIdx : 84	311	224
cornerIdx : 87	385	406
cornerIdx : 88	599	398
frame Num : 27
cornerIdx : 0	492	208
cornerIdx : 1	494	211
cornerIdx : 2	392	251
cornerIdx : 4	21	272
cornerIdx : 7	366	335
cornerIdx : 8	358	336
cornerIdx : 10	364	339
cornerIdx : 11	352	341
cornerIdx : 12	362	343
cornerIdx : 13	212	344
cornerIdx : 15	375	344
cornerIdx : 17	326	346
cornerIdx : 19	429	349
cornerIdx : 20	314	350
cornerIdx : 22	208	353
cornerIdx : 23	387	354
cornerIdx : 26	336	361
cornerIdx : 27	213	364
cornerIdx : 31	246	367
cornerIdx : 33	336	369
cornerIdx : 35	160	373
cornerIdx : 38	111	374
cornerIdx : 40	171	375
cornerIdx : 41	337	374
cornerIdx : 42	267	377
cornerIdx : 46	334	378
cornerIdx : 47	164	380
cornerIdx : 49	266	380
cornerIdx : 54	114	384
cornerIdx : 55	470	381
cornerIdx : 63	294	360
cornerIdx : 65	392	248
cornerIdx : 76	504	355
cornerIdx : 77	448	305
cornerIdx : 85	472	216
cornerIdx : 87	379	406
cornerIdx : 89	602	199
cornerIdx : 90	527	375
frame Num : 28
cornerIdx : 0	487	209
cornerIdx : 5	339	331
cornerIdx : 6	356	334
cornerIdx : 7	361	335
cornerIdx : 10	359	339
cornerIdx : 12	357	344
cornerIdx : 13	207	344
cornerIdx : 14	349	345
cornerIdx : 15	369	345
cornerIdx : 17	321	346
cornerIdx : 19	423	349
cornerIdx : 20	309	350
cornerIdx : 21	200	354
cornerIdx : 23	382	354
cornerIdx : 24	382	356
cornerIdx : 25	200	358
cornerIdx : 26	331	361
cornerIdx : 27	208	364
cornerIdx : 33	331	369
cornerIdx : 34	244	370
cornerIdx : 41	332	374
cornerIdx : 42	262	376
cornerIdx : 47	158	381
cornerIdx : 48	205	380
cornerIdx : 49	261	379
cornerIdx : 52	119	383
cornerIdx : 54	108	384
cornerIdx : 55	465	381
cornerIdx : 59	240	432
cornerIdx : 63	289	360
cornerIdx : 65	387	248
cornerIdx : 68	466	383
cornerIdx : 74	47	272
cornerIdx : 76	499	355
cornerIdx : 82	337	330
cornerIdx : 90	521	375
cornerIdx : 91	357	334
cornerIdx : 92	597	386
frame Num : 29
cornerIdx : 0	478	209
cornerIdx : 1	480	212
cornerIdx : 7	352	335
cornerIdx : 9	348	339
cornerIdx : 10	350	339
cornerIdx : 11	338	341
cornerIdx : 12	348	343
cornerIdx : 13	198	344
cornerIdx : 14	340	345
cornerIdx : 15	360	345
cornerIdx : 16	366	345
cornerIdx : 17	312	346
cornerIdx : 19	414	350
cornerIdx : 20	300	350
cornerIdx : 21	191	354
cornerIdx : 23	373	354
cornerIdx : 24	373	356
cornerIdx : 26	322	361
cornerIdx : 27	199	364
cornerIdx : 34	235	371
cornerIdx : 41	323	374
cornerIdx : 42	253	376
cornerIdx : 47	148	381
cornerIdx : 49	252	379
cornerIdx : 52	110	383
cornerIdx : 63	280	360
cornerIdx : 65	378	248
cornerIdx : 68	457	383
cornerIdx : 76	489	355
cornerIdx : 81	560	207
cornerIdx : 82	328	330
cornerIdx : 85	457	217
cornerIdx : 88	576	398
cornerIdx : 89	586	201
cornerIdx : 90	512	375
cornerIdx : 91	348	334
cornerIdx : 92	586	386
cornerIdx : 93	608	290
cornerIdx : 94	526	429
frame Num : 30
cornerIdx : 0	473	210
cornerIdx : 1	475	212
cornerIdx : 2	373	252
cornerIdx : 6	343	334
cornerIdx : 7	347	335
cornerIdx : 8	339	336
cornerIdx : 11	333	341
cornerIdx : 12	343	344
cornerIdx : 14	336	345
cornerIdx : 15	355	345
cornerIdx : 17	307	347
cornerIdx : 19	410	350
cornerIdx : 21	186	354
cornerIdx : 24	368	356
cornerIdx : 25	186	358
cornerIdx : 27	194	364
cornerIdx : 31	227	367
cornerIdx : 34	230	371
cornerIdx : 38	89	375
cornerIdx : 39	96	375
cornerIdx : 41	318	374
cornerIdx : 42	248	377
cornerIdx : 47	143	381
cornerIdx : 49	247	380
cornerIdx : 56	356	385
cornerIdx : 59	226	432
cornerIdx : 65	373	249
cornerIdx : 66	348	323
cornerIdx : 67	237	254
cornerIdx : 68	452	383
cornerIdx : 76	484	355
cornerIdx : 77	429	305
cornerIdx : 82	323	330
cornerIdx : 85	452	217
cornerIdx : 89	581	201
cornerIdx : 90	507	375
cornerIdx : 93	602	291
cornerIdx : 94	521	429
cornerIdx : 95	225	205
frame Num : 31
cornerIdx : 0	466	210
cornerIdx : 1	468	213
cornerIdx : 2	366	252
cornerIdx : 7	340	335
cornerIdx : 8	332	336
cornerIdx : 11	326	341
cornerIdx : 12	336	343
cornerIdx : 13	185	344
cornerIdx : 14	328	345
cornerIdx : 15	348	345
cornerIdx : 16	354	345
cornerIdx : 17	300	347
cornerIdx : 19	402	350
cornerIdx : 21	178	354
cornerIdx : 26	310	361
cornerIdx : 31	219	367
cornerIdx : 37	66	375
cornerIdx : 38	80	375
cornerIdx : 39	88	375
cornerIdx : 41	311	374
cornerIdx : 47	135	381
cornerIdx : 49	239	380
cornerIdx : 50	106	382
cornerIdx : 55	443	381
cornerIdx : 56	349	385
cornerIdx : 59	218	432
cornerIdx : 60	217	436
cornerIdx : 65	366	249
cornerIdx : 68	444	383
cornerIdx : 74	23	271
cornerIdx : 76	476	355
cornerIdx : 81	547	208
cornerIdx : 82	316	330
cornerIdx : 89	573	202
cornerIdx : 90	499	375
cornerIdx : 91	336	334
cornerIdx : 92	573	386
cornerIdx : 93	594	291
cornerIdx : 96	215	417
cornerIdx : 97	589	464
frame Num : 32
cornerIdx : 0	459	210
cornerIdx : 1	461	213
cornerIdx : 2	360	252
cornerIdx : 6	329	334
cornerIdx : 8	325	336
cornerIdx : 12	329	344
cornerIdx : 14	322	345
cornerIdx : 16	348	345
cornerIdx : 17	293	347
cornerIdx : 18	339	347
cornerIdx : 19	395	350
cornerIdx : 21	171	354
cornerIdx : 22	173	354
cornerIdx : 24	354	357
cornerIdx : 35	124	374
cornerIdx : 37	59	375
cornerIdx : 38	73	375
cornerIdx : 39	81	375
cornerIdx : 40	135	376
cornerIdx : 43	253	377
cornerIdx : 47	128	381
cornerIdx : 51	149	382
cornerIdx : 54	77	385
cornerIdx : 55	436	381
cornerIdx : 56	342	385
cornerIdx : 59	211	433
cornerIdx : 63	262	361
cornerIdx : 65	360	249
cornerIdx : 72	460	211
cornerIdx : 76	469	355
cornerIdx : 81	540	209
cornerIdx : 82	309	331
cornerIdx : 85	439	218
cornerIdx : 88	555	398
cornerIdx : 89	565	203
cornerIdx : 90	491	375
cornerIdx : 92	565	386
cornerIdx : 93	586	292
cornerIdx : 94	505	429
cornerIdx : 98	415	303
cornerIdx : 99	625	376
cornerIdx : 100	490	386
frame Num : 33
cornerIdx : 1	457	213
cornerIdx : 5	308	331
cornerIdx : 6	325	334
cornerIdx : 7	330	335
cornerIdx : 10	328	339
cornerIdx : 11	315	341
cornerIdx : 12	326	344
cornerIdx : 14	318	345
cornerIdx : 15	338	345
cornerIdx : 16	344	345
cornerIdx : 18	335	347
cornerIdx : 19	391	350
cornerIdx : 20	278	350
cornerIdx : 21	167	354
cornerIdx : 22	170	354
cornerIdx : 24	350	357
cornerIdx : 25	168	358
cornerIdx : 26	300	362
cornerIdx : 35	120	374
cornerIdx : 37	55	375
cornerIdx : 38	69	375
cornerIdx : 39	77	375
cornerIdx : 42	230	377
cornerIdx : 47	124	381
cornerIdx : 48	171	381
cornerIdx : 49	229	380
cornerIdx : 54	72	385
cornerIdx : 56	339	385
cornerIdx : 65	356	249
cornerIdx : 76	465	355
cornerIdx : 77	411	305
cornerIdx : 81	536	209
cornerIdx : 82	306	330
cornerIdx : 83	219	253
cornerIdx : 84	271	224
cornerIdx : 85	435	218
cornerIdx : 88	551	398
cornerIdx : 89	562	203
cornerIdx : 93	582	292
cornerIdx : 98	411	303
cornerIdx : 101	218	251
frame Num : 34
cornerIdx : 0	454	211
cornerIdx : 1	455	214
cornerIdx : 7	328	335
cornerIdx : 8	320	336
cornerIdx : 12	324	344
cornerIdx : 14	316	345
cornerIdx : 15	336	345
cornerIdx : 16	342	345
cornerIdx : 17	288	347
cornerIdx : 18	333	347
cornerIdx : 19	390	350
cornerIdx : 20	276	351
cornerIdx : 21	166	354
cornerIdx : 22	168	354
cornerIdx : 24	348	357
cornerIdx : 25	166	358
cornerIdx : 34	210	371
cornerIdx : 35	118	374
cornerIdx : 37	53	375
cornerIdx : 38	67	375
cornerIdx : 39	75	375
cornerIdx : 40	129	376
cornerIdx : 42	228	377
cornerIdx : 47	122	381
cornerIdx : 49	227	380
cornerIdx : 51	143	382
cornerIdx : 54	71	385
cornerIdx : 56	337	385
cornerIdx : 65	355	249
cornerIdx : 76	464	355
cornerIdx : 82	304	330
cornerIdx : 85	432	218
cornerIdx : 90	486	375
cornerIdx : 91	324	334
cornerIdx : 92	559	386
cornerIdx : 96	202	418
cornerIdx : 98	410	303
cornerIdx : 99	619	376
cornerIdx : 100	484	386
cornerIdx : 101	216	251
cornerIdx : 102	182	365
frame Num : 35
cornerIdx : 7	327	335
cornerIdx : 8	319	336
cornerIdx : 10	325	339
cornerIdx : 11	313	341
cornerIdx : 12	323	344
cornerIdx : 13	172	345
cornerIdx : 14	315	345
cornerIdx : 15	335	345
cornerIdx : 16	342	345
cornerIdx : 17	287	347
cornerIdx : 18	333	347
cornerIdx : 19	389	350
cornerIdx : 21	165	354
cornerIdx : 22	167	354
cornerIdx : 23	348	355
cornerIdx : 24	348	357
cornerIdx : 25	165	358
cornerIdx : 26	297	362
cornerIdx : 35	117	374
cornerIdx : 37	53	375
cornerIdx : 38	66	375
cornerIdx : 39	74	375
cornerIdx : 42	227	377
cornerIdx : 47	121	381
cornerIdx : 48	169	381
cornerIdx : 49	226	380
cornerIdx : 51	142	382
cornerIdx : 56	336	385
cornerIdx : 65	354	249
cornerIdx : 68	431	383
cornerIdx : 76	463	355
cornerIdx : 83	216	253
cornerIdx : 88	548	398
cornerIdx : 90	485	375
cornerIdx : 92	558	386
cornerIdx : 93	579	292
cornerIdx : 97	574	463
cornerIdx : 98	409	304
cornerIdx : 99	618	376
cornerIdx : 102	182	365
cornerIdx : 103	618	377
frame Num : 36
cornerIdx : 1	443	214
cornerIdx : 2	342	252
cornerIdx : 6	311	334
cornerIdx : 8	307	336
cornerIdx : 11	301	341
cornerIdx : 12	311	344
cornerIdx : 13	159	345
cornerIdx : 15	324	345
cornerIdx : 16	330	345
cornerIdx : 17	275	347
cornerIdx : 19	377	350
cornerIdx : 21	152	354
cornerIdx : 22	154	354
cornerIdx : 24	336	357
cornerIdx : 25	153	358
cornerIdx : 26	285	362
cornerIdx : 33	285	370
cornerIdx : 41	286	375
cornerIdx : 42	215	378
cornerIdx : 47	107	382
cornerIdx : 48	156	381
cornerIdx : 49	214	380
cornerIdx : 53	364	381
cornerIdx : 55	417	382
cornerIdx : 56	324	385
cornerIdx : 58	269	398
cornerIdx : 63	244	361
cornerIdx : 65	343	249
cornerIdx : 77	397	306
cornerIdx : 82	291	331
cornerIdx : 84	257	224
cornerIdx : 88	534	398
cornerIdx : 93	566	292
cornerIdx : 95	194	204
cornerIdx : 98	397	304
cornerIdx : 99	603	376
cornerIdx : 100	471	386
cornerIdx : 101	204	251
cornerIdx : 102	169	365
cornerIdx : 103	604	377
cornerIdx : 104	518	211
cornerIdx : 105	621	449
frame Num : 37
cornerIdx : 0	434	212
cornerIdx : 1	436	215
cornerIdx : 7	308	336
cornerIdx : 9	304	340
cornerIdx : 11	294	342
cornerIdx : 12	304	344
cornerIdx : 13	151	345
cornerIdx : 14	296	346
cornerIdx : 15	316	346
cornerIdx : 16	322	346
cornerIdx : 17	268	347
cornerIdx : 19	370	350
cornerIdx : 21	144	354
cornerIdx : 24	328	357
cornerIdx : 26	278	362
cornerIdx : 35	96	375
cornerIdx : 38	42	376
cornerIdx : 39	51	376
cornerIdx : 41	278	375
cornerIdx : 42	207	378
cornerIdx : 47	99	382
cornerIdx : 49	206	381
cornerIdx : 51	120	383
cornerIdx : 55	409	382
cornerIdx : 63	236	361
cornerIdx : 65	335	250
cornerIdx : 76	443	356
cornerIdx : 77	389	305
cornerIdx : 78	457	384
cornerIdx : 83	197	253
cornerIdx : 84	250	224
cornerIdx : 85	414	219
cornerIdx : 88	526	398
cornerIdx : 89	538	205
cornerIdx : 91	304	335
cornerIdx : 93	557	293
cornerIdx : 96	180	419
cornerIdx : 101	197	251
cornerIdx : 102	161	366
cornerIdx : 103	595	377
cornerIdx : 105	612	448
cornerIdx : 106	161	432
frame Num : 38
cornerIdx : 7	305	336
cornerIdx : 8	297	337
cornerIdx : 11	291	342
cornerIdx : 12	301	344
cornerIdx : 13	148	345
cornerIdx : 14	293	346
cornerIdx : 16	319	346
cornerIdx : 17	265	347
cornerIdx : 18	311	347
cornerIdx : 19	366	351
cornerIdx : 20	253	351
cornerIdx : 21	141	354
cornerIdx : 22	143	354
cornerIdx : 24	325	357
cornerIdx : 26	275	362
cornerIdx : 27	149	365
cornerIdx : 35	92	375
cornerIdx : 37	25	376
cornerIdx : 38	39	376
cornerIdx : 39	48	376
cornerIdx : 41	275	375
cornerIdx : 42	204	378
cornerIdx : 47	95	382
cornerIdx : 49	203	381
cornerIdx : 58	258	398
cornerIdx : 63	233	361
cornerIdx : 65	332	250
cornerIdx : 76	440	356
cornerIdx : 82	281	331
cornerIdx : 84	247	224
cornerIdx : 88	523	398
cornerIdx : 92	533	387
cornerIdx : 93	554	293
cornerIdx : 95	184	204
cornerIdx : 96	177	419
cornerIdx : 98	387	305
cornerIdx : 102	158	366
cornerIdx : 103	592	377
cornerIdx : 104	508	212
cornerIdx : 105	608	448
cornerIdx : 106	158	432
cornerIdx : 107	362	378
frame Num : 39
cornerIdx : 7	303	336
cornerIdx : 8	294	336
cornerIdx : 11	289	342
cornerIdx : 12	299	345
cornerIdx : 13	145	345
cornerIdx : 14	291	346
cornerIdx : 15	311	346
cornerIdx : 16	317	346
cornerIdx : 17	263	347
cornerIdx : 18	308	348
cornerIdx : 19	364	351
cornerIdx : 21	138	355
cornerIdx : 25	138	359
cornerIdx : 27	146	365
cornerIdx : 35	90	375
cornerIdx : 37	23	376
cornerIdx : 38	37	376
cornerIdx : 39	46	376
cornerIdx : 41	273	375
cornerIdx : 42	202	378
cornerIdx : 47	93	382
cornerIdx : 49	201	381
cornerIdx : 55	404	382
cornerIdx : 56	311	386
cornerIdx : 65	330	250
cornerIdx : 66	304	324
cornerIdx : 76	438	356
cornerIdx : 77	384	306
cornerIdx : 78	452	384
cornerIdx : 81	508	212
cornerIdx : 82	278	331
cornerIdx : 83	192	253
cornerIdx : 92	530	387
cornerIdx : 95	181	203
cornerIdx : 96	175	419
cornerIdx : 99	588	377
cornerIdx : 102	155	366
cornerIdx : 103	589	377
cornerIdx : 104	505	212
cornerIdx : 105	606	448
cornerIdx : 106	155	432
cornerIdx : 108	624	381
frame Num : 40
cornerIdx : 0	420	213
cornerIdx : 2	321	253
cornerIdx : 6	289	335
cornerIdx : 7	293	336
cornerIdx : 8	285	337
cornerIdx : 11	279	342
cornerIdx : 12	289	344
cornerIdx : 13	135	345
cornerIdx : 15	301	346
cornerIdx : 16	307	346
cornerIdx : 17	253	347
cornerIdx : 18	298	348
cornerIdx : 19	355	351
cornerIdx : 21	128	354
cornerIdx : 26	263	362
cornerIdx : 27	136	365
cornerIdx : 35	79	375
cornerIdx : 38	26	376
cornerIdx : 41	263	375
cornerIdx : 42	191	379
cornerIdx : 47	82	382
cornerIdx : 49	190	381
cornerIdx : 52	40	385
cornerIdx : 55	394	382
cornerIdx : 56	301	386
cornerIdx : 58	245	398
cornerIdx : 63	221	362
cornerIdx : 65	321	250
cornerIdx : 76	427	356
cornerIdx : 78	442	384
cornerIdx : 84	235	224
cornerIdx : 88	510	398
cornerIdx : 89	523	207
cornerIdx : 92	519	387
cornerIdx : 93	541	294
cornerIdx : 96	164	420
cornerIdx : 98	375	304
cornerIdx : 101	181	250
cornerIdx : 102	145	366
cornerIdx : 103	578	377
cornerIdx : 104	496	213
cornerIdx : 106	144	433
cornerIdx : 109	621	392
frame Num : 41
cornerIdx : 7	288	336
cornerIdx : 8	280	337
cornerIdx : 10	286	340
cornerIdx : 12	284	345
cornerIdx : 13	129	345
cornerIdx : 14	276	346
cornerIdx : 15	296	346
cornerIdx : 16	302	346
cornerIdx : 17	248	347
cornerIdx : 18	293	348
cornerIdx : 19	349	351
cornerIdx : 20	236	351
cornerIdx : 21	122	355
cornerIdx : 25	122	359
cornerIdx : 38	19	376
cornerIdx : 41	258	375
cornerIdx : 42	186	378
cornerIdx : 47	76	383
cornerIdx : 49	185	381
cornerIdx : 55	389	382
cornerIdx : 56	296	386
cornerIdx : 63	216	362
cornerIdx : 65	316	250
cornerIdx : 67	177	253
cornerIdx : 68	390	384
cornerIdx : 76	422	356
cornerIdx : 82	264	331
cornerIdx : 84	230	224
cornerIdx : 85	394	220
cornerIdx : 88	504	398
cornerIdx : 89	517	207
cornerIdx : 90	443	376
cornerIdx : 91	284	335
cornerIdx : 95	166	203
cornerIdx : 99	571	376
cornerIdx : 101	176	250
cornerIdx : 102	139	366
cornerIdx : 103	572	377
cornerIdx : 104	490	213
cornerIdx : 105	588	447
cornerIdx : 106	139	433
cornerIdx : 109	615	392
cornerIdx : 110	618	375
frame Num : 42
cornerIdx : 7	271	336
cornerIdx : 8	263	337
cornerIdx : 12	267	345
cornerIdx : 13	111	345
cornerIdx : 14	259	346
cornerIdx : 15	279	346
cornerIdx : 16	286	346
cornerIdx : 17	231	348
cornerIdx : 18	277	348
cornerIdx : 19	332	351
cornerIdx : 21	103	355
cornerIdx : 22	105	355
cornerIdx : 24	292	358
cornerIdx : 25	104	359
cornerIdx : 26	240	363
cornerIdx : 35	53	376
cornerIdx : 41	241	376
cornerIdx : 42	168	379
cornerIdx : 47	56	383
cornerIdx : 49	167	382
cornerIdx : 53	319	382
cornerIdx : 56	279	386
cornerIdx : 58	223	399
cornerIdx : 63	198	362
cornerIdx : 65	300	250
cornerIdx : 68	373	384
cornerIdx : 76	405	356
cornerIdx : 87	284	408
cornerIdx : 88	486	398
cornerIdx : 89	500	209
cornerIdx : 90	426	376
cornerIdx : 92	496	387
cornerIdx : 93	517	295
cornerIdx : 95	149	202
cornerIdx : 96	140	421
cornerIdx : 98	353	305
cornerIdx : 99	552	376
cornerIdx : 101	159	250
cornerIdx : 102	122	366
cornerIdx : 103	552	377
cornerIdx : 104	473	215
cornerIdx : 111	516	295
cornerIdx : 112	579	456
frame Num : 43
cornerIdx : 0	395	215
cornerIdx : 2	295	253
cornerIdx : 6	262	335
cornerIdx : 7	266	336
cornerIdx : 8	258	338
cornerIdx : 12	262	345
cornerIdx : 15	275	346
cornerIdx : 16	281	346
cornerIdx : 17	226	348
cornerIdx : 18	272	348
cornerIdx : 19	328	351
cornerIdx : 21	97	355
cornerIdx : 22	100	355
cornerIdx : 23	287	356
cornerIdx : 26	235	363
cornerIdx : 42	163	379
cornerIdx : 47	50	384
cornerIdx : 53	315	382
cornerIdx : 58	217	399
cornerIdx : 63	193	362
cornerIdx : 65	295	250
cornerIdx : 68	368	384
cornerIdx : 72	394	215
cornerIdx : 76	400	357
cornerIdx : 77	348	307
cornerIdx : 81	471	215
cornerIdx : 82	242	331
cornerIdx : 88	481	398
cornerIdx : 89	495	209
cornerIdx : 90	421	376
cornerIdx : 92	490	387
cornerIdx : 93	512	295
cornerIdx : 96	134	421
cornerIdx : 99	546	377
cornerIdx : 101	154	250
cornerIdx : 102	115	367
cornerIdx : 103	547	378
cornerIdx : 104	468	215
cornerIdx : 107	323	379
cornerIdx : 109	589	392
cornerIdx : 111	511	295
cornerIdx : 112	573	456
cornerIdx : 113	432	169
cornerIdx : 114	571	194
frame Num : 44
cornerIdx : 0	391	215
cornerIdx : 12	258	345
cornerIdx : 15	271	346
cornerIdx : 21	93	355
cornerIdx : 23	283	356
cornerIdx : 42	158	380
cornerIdx : 49	157	383
cornerIdx : 63	189	362
cornerIdx : 65	291	250
cornerIdx : 68	364	384
cornerIdx : 76	396	357
cornerIdx : 81	467	215
cornerIdx : 82	238	331
cornerIdx : 85	370	221
cornerIdx : 90	417	376
cornerIdx : 92	486	387
cornerIdx : 96	130	421
cornerIdx : 101	150	250
cornerIdx : 102	111	367
cornerIdx : 103	542	378
cornerIdx : 106	109	435
cornerIdx : 111	506	296
cornerIdx : 113	429	169
cornerIdx : 114	567	194
cornerIdx : 115	569	455
frame Num : 45
cornerIdx : 0	379	215
cornerIdx : 6	246	335
cornerIdx : 7	250	336
cornerIdx : 8	242	337
cornerIdx : 10	248	341
cornerIdx : 12	246	345
cornerIdx : 14	238	347
cornerIdx : 15	259	346
cornerIdx : 16	265	346
cornerIdx : 18	256	348
cornerIdx : 21	80	355
cornerIdx : 22	82	355
cornerIdx : 23	271	356
cornerIdx : 24	271	358
cornerIdx : 26	219	363
cornerIdx : 42	146	379
cornerIdx : 47	30	384
cornerIdx : 49	144	383
cornerIdx : 56	258	387
cornerIdx : 58	200	399
cornerIdx : 63	177	362
cornerIdx : 65	280	250
cornerIdx : 68	352	384
cornerIdx : 76	384	357
cornerIdx : 82	226	331
cornerIdx : 84	193	223
cornerIdx : 85	358	221
cornerIdx : 88	464	398
cornerIdx : 90	404	376
cornerIdx : 92	473	387
cornerIdx : 93	495	296
cornerIdx : 96	117	422
cornerIdx : 99	528	377
cornerIdx : 101	137	249
cornerIdx : 102	98	367
cornerIdx : 103	529	378
cornerIdx : 104	452	216
cornerIdx : 105	544	447
cornerIdx : 107	307	379
cornerIdx : 111	494	296
cornerIdx : 112	555	455
cornerIdx : 113	417	170
cornerIdx : 114	555	195
cornerIdx : 116	465	399
cornerIdx : 117	256	413
frame Num : 46
cornerIdx : 0	378	215
cornerIdx : 6	245	335
cornerIdx : 7	249	336
cornerIdx : 10	247	341
cornerIdx : 11	235	343
cornerIdx : 12	245	345
cornerIdx : 15	258	346
cornerIdx : 16	264	346
cornerIdx : 21	78	355
cornerIdx : 22	81	355
cornerIdx : 24	270	358
cornerIdx : 26	218	363
cornerIdx : 41	218	376
cornerIdx : 42	145	379
cornerIdx : 47	29	384
cornerIdx : 49	143	383
cornerIdx : 53	298	382
cornerIdx : 56	257	387
cornerIdx : 63	176	362
cornerIdx : 65	278	250
cornerIdx : 68	351	384
cornerIdx : 76	383	356
cornerIdx : 81	454	215
cornerIdx : 85	357	221
cornerIdx : 88	463	398
cornerIdx : 89	478	210
cornerIdx : 90	403	376
cornerIdx : 93	494	295
cornerIdx : 95	127	201
cornerIdx : 101	136	249
cornerIdx : 102	97	367
cornerIdx : 103	528	378
cornerIdx : 104	451	216
cornerIdx : 105	543	447
cornerIdx : 106	95	435
cornerIdx : 107	306	379
cornerIdx : 111	493	296
cornerIdx : 112	554	455
cornerIdx : 113	416	170
cornerIdx : 114	553	195
cornerIdx : 115	554	454
cornerIdx : 116	464	399
cornerIdx : 117	255	413
cornerIdx : 118	571	285
frame Num : 47
cornerIdx : 6	245	335
cornerIdx : 7	249	336
cornerIdx : 8	241	337
cornerIdx : 10	247	341
cornerIdx : 11	235	343
cornerIdx : 12	245	345
cornerIdx : 13	86	346
cornerIdx : 14	237	347
cornerIdx : 15	258	346
cornerIdx : 16	264	346
cornerIdx : 17	209	348
cornerIdx : 19	311	352
cornerIdx : 21	79	355
cornerIdx : 22	81	355
cornerIdx : 26	218	363
cornerIdx : 41	218	376
cornerIdx : 42	144	380
cornerIdx : 47	29	384
cornerIdx : 49	143	383
cornerIdx : 56	257	387
cornerIdx : 65	279	250
cornerIdx : 68	351	384
cornerIdx : 76	383	357
cornerIdx : 82	225	331
cornerIdx : 84	192	223
cornerIdx : 88	463	398
cornerIdx : 92	472	387
cornerIdx : 93	494	296
cornerIdx : 95	127	201
cornerIdx : 96	116	422
cornerIdx : 101	136	249
cornerIdx : 102	97	367
cornerIdx : 103	528	378
cornerIdx : 104	451	216
cornerIdx : 105	544	446
cornerIdx : 106	95	436
cornerIdx : 107	306	379
cornerIdx : 111	493	296
cornerIdx : 112	554	455
cornerIdx : 113	416	170
cornerIdx : 115	554	454
cornerIdx : 116	464	399
cornerIdx : 117	255	413
cornerIdx : 118	571	285
cornerIdx : 119	559	376
frame Num : 48
cornerIdx : 6	245	335
cornerIdx : 7	249	336
cornerIdx : 8	241	337
cornerIdx : 10	247	341
cornerIdx : 11	235	343
cornerIdx : 12	245	345
cornerIdx : 13	86	346
cornerIdx : 15	258	346
cornerIdx : 16	264	346
cornerIdx : 17	209	348
cornerIdx : 19	311	352
cornerIdx : 21	79	355
cornerIdx : 22	81	355
cornerIdx : 24	270	358
cornerIdx : 25	80	359
cornerIdx : 26	218	363
cornerIdx : 42	144	380
cornerIdx : 47	29	384
cornerIdx : 49	143	383
cornerIdx : 56	257	387
cornerIdx : 65	279	250
cornerIdx : 68	351	384
cornerIdx : 76	383	356
cornerIdx : 82	225	331
cornerIdx : 85	357	221
cornerIdx : 88	463	398
cornerIdx : 89	478	210
cornerIdx : 92	472	387
cornerIdx : 93	494	296
cornerIdx : 96	116	422
cornerIdx : 99	527	377
cornerIdx : 101	136	249
cornerIdx : 102	97	367
cornerIdx : 103	528	378
cornerIdx : 104	451	216
cornerIdx : 106	95	436
cornerIdx : 107	306	379
cornerIdx : 111	493	296
cornerIdx : 112	554	455
cornerIdx : 113	416	170
cornerIdx : 114	554	195
cornerIdx : 116	464	399
cornerIdx : 117	255	413
cornerIdx : 118	571	285
cornerIdx : 120	83	366
frame Num : 49
cornerIdx : 0	378	215
cornerIdx : 6	245	335
cornerIdx : 7	249	336
cornerIdx : 8	241	337
cornerIdx : 12	245	345
cornerIdx : 13	86	345
cornerIdx : 15	258	346
cornerIdx : 16	264	346
cornerIdx : 17	209	348
cornerIdx : 18	255	348
cornerIdx : 21	78	355
cornerIdx : 22	81	355
cornerIdx : 24	270	358
cornerIdx : 25	79	359
cornerIdx : 26	218	363
cornerIdx : 42	145	379
cornerIdx : 47	29	384
cornerIdx : 48	82	383
cornerIdx : 49	144	382
cornerIdx : 53	298	382
cornerIdx : 56	257	386
cornerIdx : 63	176	362
cornerIdx : 65	279	250
cornerIdx : 68	351	384
cornerIdx : 82	225	331
cornerIdx : 85	357	221
cornerIdx : 88	463	398
cornerIdx : 90	403	376
cornerIdx : 93	494	296
cornerIdx : 95	127	201
cornerIdx : 96	116	422
cornerIdx : 102	97	367
cornerIdx : 103	528	378
cornerIdx : 104	451	216
cornerIdx : 105	543	447
cornerIdx : 106	95	435
cornerIdx : 110	573	375
cornerIdx : 111	493	296
cornerIdx : 112	554	455
cornerIdx : 113	416	170
cornerIdx : 115	554	454
cornerIdx : 116	464	399
cornerIdx : 117	255	413
cornerIdx : 118	571	285
cornerIdx : 119	559	376
cornerIdx : 121	553	452
frame Num : 50
cornerIdx : 6	245	335
cornerIdx : 7	249	336
cornerIdx : 8	241	337
cornerIdx : 11	235	342
cornerIdx : 12	245	345
cornerIdx : 13	86	345
cornerIdx : 15	258	346
cornerIdx : 16	264	346
cornerIdx : 17	209	348
cornerIdx : 18	255	348
cornerIdx : 21	78	355
cornerIdx : 22	81	355
cornerIdx : 23	270	356
cornerIdx : 24	270	358
cornerIdx : 25	79	359
cornerIdx : 26	218	363
cornerIdx : 35	27	376
cornerIdx : 42	145	379
cornerIdx : 49	143	383
cornerIdx : 53	298	382
cornerIdx : 56	257	386
cornerIdx : 63	176	362
cornerIdx : 65	279	250
cornerIdx : 68	351	384
cornerIdx : 76	383	356
cornerIdx : 90	404	376
cornerIdx : 92	472	387
cornerIdx : 93	494	296
cornerIdx : 94	418	428
cornerIdx : 95	126	200
cornerIdx : 102	97	367
cornerIdx : 103	528	377
cornerIdx : 104	451	216
cornerIdx : 106	95	435
cornerIdx : 107	306	379
cornerIdx : 110	573	375
cornerIdx : 111	493	296
cornerIdx : 112	554	455
cornerIdx : 113	416	170
cornerIdx : 114	553	195
cornerIdx : 115	554	454
cornerIdx : 116	464	399
cornerIdx : 117	255	413
cornerIdx : 118	572	285
cornerIdx : 121	553	452
cornerIdx : 122	494	300
frame Num : 51
cornerIdx : 12	245	345
cornerIdx : 15	258	346
cornerIdx : 18	255	348
cornerIdx : 24	270	358
cornerIdx : 63	176	362
cornerIdx : 65	279	250
cornerIdx : 68	351	384
cornerIdx : 88	463	398
cornerIdx : 93	494	296
cornerIdx : 101	136	249
cornerIdx : 103	528	378
cornerIdx : 104	451	216
cornerIdx : 112	554	455
cornerIdx : 113	416	170
cornerIdx : 116	464	399
cornerIdx : 118	571	285
cornerIdx : 121	553	452
cornerIdx : 122	494	300
cornerIdx : 123	494	287
cornerIdx : 124	38	290
cornerIdx : 125	256	347
cornerIdx : 126	362	373
cornerIdx : 127	570	377
cornerIdx : 128	418	429
cornerIdx : 129	543	446
cornerIdx : 130	546	449
frame Num : 52
cornerIdx : 103	528	378
cornerIdx : 104	451	216
cornerIdx : 113	416	170
cornerIdx : 123	494	287
cornerIdx : 125	256	347
cornerIdx : 127	570	377
cornerIdx : 128	418	429
cornerIdx : 130	546	449
cornerIdx : 131	261	337
cornerIdx : 132	67	366
cornerIdx : 133	562	378
cornerIdx : 134	561	380
cornerIdx : 135	248	386
cornerIdx : 136	192	389
cornerIdx : 137	570	392
cornerIdx : 138	542	445
frame Num : 53
cornerIdx : 12	245	345
cornerIdx : 14	237	346
cornerIdx : 15	258	346
cornerIdx : 18	255	348
cornerIdx : 21	78	355
cornerIdx : 24	270	358
cornerIdx : 68	351	384
cornerIdx : 76	383	356
cornerIdx : 88	463	398
cornerIdx : 93	494	296
cornerIdx : 103	528	378
cornerIdx : 104	451	216
cornerIdx : 105	543	446
cornerIdx : 112	554	455
cornerIdx : 113	416	170
cornerIdx : 117	255	413
cornerIdx : 121	553	452
cornerIdx : 139	265	249
cornerIdx : 140	70	384
cornerIdx : 141	265	410
frame Num : 54
cornerIdx : 123	494	287
cornerIdx : 127	570	377
cornerIdx : 128	418	429
cornerIdx : 129	543	446
cornerIdx : 130	546	449
cornerIdx : 139	265	249
cornerIdx : 140	70	384
cornerIdx : 141	265	410
cornerIdx : 142	483	353
frame Num : 55
cornerIdx : 0	378	215
cornerIdx : 6	245	335
cornerIdx : 7	250	336
cornerIdx : 8	241	337
cornerIdx : 11	235	342
cornerIdx : 12	245	345
cornerIdx : 13	86	345
cornerIdx : 15	258	346
cornerIdx : 16	264	346
cornerIdx : 17	209	347
cornerIdx : 18	255	348
cornerIdx : 21	78	355
cornerIdx : 22	81	355
cornerIdx : 24	270	358
cornerIdx : 25	79	359
cornerIdx : 26	218	363
cornerIdx : 35	27	376
cornerIdx : 48	82	383
cornerIdx : 49	143	383
cornerIdx : 53	297	382
cornerIdx : 55	349	382
cornerIdx : 56	257	386
cornerIdx : 63	176	362
cornerIdx : 65	279	250
cornerIdx : 68	351	384
cornerIdx : 76	383	356
cornerIdx : 78	396	384
cornerIdx : 88	463	398
cornerIdx : 89	478	210
cornerIdx : 90	403	376
cornerIdx : 92	472	387
cornerIdx : 93	494	296
cornerIdx : 94	418	428
cornerIdx : 96	116	421
cornerIdx : 98	332	306
cornerIdx : 101	136	248
cornerIdx : 102	98	366
cornerIdx : 103	528	377
cornerIdx : 104	451	216
cornerIdx : 105	543	447
cornerIdx : 106	95	435
cornerIdx : 111	493	296
cornerIdx : 112	554	455
cornerIdx : 113	416	170
cornerIdx : 114	554	195
cornerIdx : 115	554	454
cornerIdx : 117	255	413
cornerIdx : 118	571	285
cornerIdx : 121	553	452
cornerIdx : 122	494	299
cornerIdx : 139	265	249
cornerIdx : 142	483	353
cornerIdx : 143	426	173
frame Num : 56
cornerIdx : 123	494	287
cornerIdx : 127	570	377
cornerIdx : 128	418	429
cornerIdx : 130	546	449
cornerIdx : 139	265	249
cornerIdx : 140	70	384
cornerIdx : 143	426	173
cornerIdx : 144	121	423
frame Num : 57
cornerIdx : 12	245	345
cornerIdx : 24	270	358
cornerIdx : 63	176	362
cornerIdx : 68	351	384
cornerIdx : 88	463	398
cornerIdx : 103	528	378
cornerIdx : 104	451	216
cornerIdx : 112	554	455
cornerIdx : 113	416	170
cornerIdx : 118	571	285
cornerIdx : 125	256	347
cornerIdx : 127	570	377
cornerIdx : 130	546	449
cornerIdx : 139	265	249
cornerIdx : 140	70	384
cornerIdx : 145	486	205
cornerIdx : 146	493	283
cornerIdx : 147	263	351
frame Num : 58
cornerIdx : 12	245	345
cornerIdx : 63	176	362
cornerIdx : 103	528	377
cornerIdx : 104	451	216
cornerIdx : 121	553	452
cornerIdx : 123	494	287
cornerIdx : 125	256	347
cornerIdx : 127	570	377
cornerIdx : 128	418	429
cornerIdx : 130	546	449
cornerIdx : 139	265	249
cornerIdx : 140	70	384
cornerIdx : 148	538	376
frame Num : 59
cornerIdx : 8	241	337
cornerIdx : 12	245	345
cornerIdx : 15	258	346
cornerIdx : 16	264	346
cornerIdx : 18	255	348
cornerIdx : 21	78	355
cornerIdx : 24	270	358
cornerIdx : 63	176	362
cornerIdx : 68	351	384
cornerIdx : 76	383	356
cornerIdx : 82	225	331
cornerIdx : 88	463	398
cornerIdx : 103	528	378
cornerIdx : 104	451	216
cornerIdx : 107	306	379
cornerIdx : 112	554	455
cornerIdx : 113	416	170
cornerIdx : 116	464	399
cornerIdx : 118	571	285
cornerIdx : 121	553	452
cornerIdx : 139	265	249
cornerIdx : 145	486	205
cornerIdx : 149	219	371
cornerIdx : 150	120	437
cornerIdx : 151	119	446
frame Num : 60
cornerIdx : 6	245	335
cornerIdx : 8	241	337
cornerIdx : 11	235	342
cornerIdx : 12	245	345
cornerIdx : 13	86	345
cornerIdx : 16	264	346
cornerIdx : 17	209	347
cornerIdx : 18	255	348
cornerIdx : 21	78	355
cornerIdx : 22	81	355
cornerIdx : 24	270	358
cornerIdx : 25	79	359
cornerIdx : 35	27	376
cornerIdx : 42	145	379
cornerIdx : 47	30	383
cornerIdx : 49	144	382
cornerIdx : 56	257	386
cornerIdx : 63	176	362
cornerIdx : 65	279	250
cornerIdx : 68	351	384
cornerIdx : 76	383	356
cornerIdx : 88	463	398
cornerIdx : 93	494	296
cornerIdx : 96	116	422
cornerIdx : 102	98	366
cornerIdx : 103	528	378
cornerIdx : 104	451	216
cornerIdx : 105	543	447
cornerIdx : 106	95	435
cornerIdx : 111	493	296
cornerIdx : 112	554	455
cornerIdx : 113	416	170
cornerIdx : 114	554	195
cornerIdx : 115	554	454
cornerIdx : 116	464	399
cornerIdx : 117	255	413
cornerIdx : 118	571	285
cornerIdx : 121	553	452
cornerIdx : 123	494	287
cornerIdx : 127	570	377
cornerIdx : 129	543	446
cornerIdx : 130	546	449
cornerIdx : 131	261	337
cornerIdx : 132	67	366
cornerIdx : 133	562	378
cornerIdx : 135	248	386
cornerIdx : 136	192	389
cornerIdx : 137	570	392
cornerIdx : 139	265	249
cornerIdx : 143	426	173
cornerIdx : 144	121	423
cornerIdx : 145	486	205
cornerIdx : 146	493	283
cornerIdx : 147	263	351
cornerIdx : 149	219	371
cornerIdx : 150	120	437
cornerIdx : 151	119	446
cornerIdx : 152	494	283
cornerIdx : 153	437	433
frame Num : 61
cornerIdx : 12	245	345
cornerIdx : 15	258	346
cornerIdx : 18	255	348
cornerIdx : 21	78	355
cornerIdx : 63	176	362
cornerIdx : 82	225	331
cornerIdx : 104	451	216
cornerIdx : 106	95	435
cornerIdx : 112	554	455
cornerIdx : 117	255	413
cornerIdx : 122	494	299
cornerIdx : 131	261	337
cornerIdx : 132	66	366
cornerIdx : 135	248	386
cornerIdx : 136	192	389
cornerIdx : 139	265	249
cornerIdx : 140	70	384
cornerIdx : 143	426	173
cornerIdx : 147	263	351
cornerIdx : 149	219	371
cornerIdx : 150	120	437
cornerIdx : 151	119	446
cornerIdx : 152	494	283
cornerIdx : 153	437	433
cornerIdx : 154	82	355
frame Num : 62
cornerIdx : 12	245	345
cornerIdx : 15	258	346
cornerIdx : 18	255	348
cornerIdx : 21	78	355
cornerIdx : 63	176	362
cornerIdx : 82	225	331
cornerIdx : 104	451	216
cornerIdx : 106	95	435
cornerIdx : 114	554	195
cornerIdx : 125	256	347
cornerIdx : 131	261	337
cornerIdx : 132	67	366
cornerIdx : 135	248	386
cornerIdx : 136	192	389
cornerIdx : 139	265	249
cornerIdx : 140	70	384
cornerIdx : 143	426	173
cornerIdx : 144	121	423
cornerIdx : 145	486	205
cornerIdx : 147	263	351
cornerIdx : 149	219	371
cornerIdx : 150	120	437
cornerIdx : 151	119	446
cornerIdx : 152	494	283
cornerIdx : 153	437	433
cornerIdx : 155	611	190
cornerIdx : 156	571	383
frame Num : 63
cornerIdx : 12	245	345
cornerIdx : 21	78	355
cornerIdx : 63	176	362
cornerIdx : 125	256	347
cornerIdx : 132	66	366
cornerIdx : 135	248	386
cornerIdx : 136	192	389
cornerIdx : 140	70	384
cornerIdx : 147	263	351
cornerIdx : 149	219	371
cornerIdx : 150	120	437
cornerIdx : 151	119	446
cornerIdx : 152	494	283
cornerIdx : 153	437	433
cornerIdx : 155	611	190
cornerIdx : 157	324	298
frame Num : 64
cornerIdx : 63	176	362
cornerIdx : 103	528	377
cornerIdx : 104	451	216
cornerIdx : 113	416	170
cornerIdx : 118	571	285
cornerIdx : 125	256	347
cornerIdx : 130	546	449
cornerIdx : 131	261	337
cornerIdx : 132	67	366
cornerIdx : 133	562	378
cornerIdx : 135	248	386
cornerIdx : 139	265	249
cornerIdx : 143	426	173
cornerIdx : 145	486	205
cornerIdx : 147	263	351
cornerIdx : 149	219	371
cornerIdx : 157	324	298
cornerIdx : 158	571	291
cornerIdx : 159	222	338
frame Num : 65
cornerIdx : 12	245	345
cornerIdx : 21	78	355
cornerIdx : 63	176	362
cornerIdx : 104	451	216
cornerIdx : 125	256	347
cornerIdx : 132	67	366
cornerIdx : 135	248	386
cornerIdx : 136	192	389
cornerIdx : 139	265	249
cornerIdx : 140	70	384
cornerIdx : 143	426	173
cornerIdx : 147	263	351
cornerIdx : 150	120	437
cornerIdx : 151	119	446
cornerIdx : 157	324	298
cornerIdx : 160	70	329
frame Num : 66
cornerIdx : 132	67	366
cornerIdx : 140	70	384
cornerIdx : 147	263	351
cornerIdx : 152	494	283
cornerIdx : 157	324	298
cornerIdx : 158	571	291
cornerIdx : 159	222	338
cornerIdx : 161	324	296
cornerIdx : 162	70	330
cornerIdx : 163	363	372
cornerIdx : 164	303	377
cornerIdx : 165	219	379
cornerIdx : 166	143	383
cornerIdx : 167	240	413
cornerIdx : 168	422	426
cornerIdx : 169	120	446
cornerIdx : 170	552	450
