^C:\USERS\VCL\DOCUMENTS\VISUAL STUDIO 2013\PROJECTS\PTAM - SIFT\PTAM\X64\DEBUG\GLVIEW.OBJ|C:\USERS\VCL\DOCUMENTS\VISUAL STUDIO 2013\PROJECTS\PTAM - SIFT\PTAM\X64\DEBUG\IMAGEDATA.OBJ|C:\USERS\VCL\DOCUMENTS\VISUAL STUDIO 2013\PROJECTS\PTAM - SIFT\PTAM\X64\DEBUG\KEYFRAME.OBJ|C:\USERS\VCL\DOCUMENTS\VISUAL STUDIO 2013\PROJECTS\PTAM - SIFT\PTAM\X64\DEBUG\MAIN.OBJ|C:\USERS\VCL\DOCUMENTS\VISUAL STUDIO 2013\PROJECTS\PTAM - SIFT\PTAM\X64\DEBUG\MAP.OBJ|C:\USERS\VCL\DOCUMENTS\VISUAL STUDIO 2013\PROJECTS\PTAM - SIFT\PTAM\X64\DEBUG\RESULTMAP.OBJ|C:\USERS\VCL\DOCUMENTS\VISUAL STUDIO 2013\PROJECTS\PTAM - SIFT\PTAM\X64\DEBUG\SHADER.OBJ|C:\USERS\VCL\DOCUMENTS\VISUAL STUDIO 2013\PROJECTS\PTAM - SIFT\PTAM\X64\DEBUG\STDAFX.OBJ
C:\WINDOWS\GLOBALIZATION\SORTING\SORTDEFAULT.NLS
C:\PROGRAM FILES\SOFTKINETIC\DEPTHSENSESDK\LIB\DEPTHSENSE.LIB
C:\PROGRAM FILES (X86)\WINDOWS KITS\8.1\LIB\WINV6.3\UM\X64\OPENGL32.LIB
C:\USERS\VCL\DOWNLOADS\OPENGL\GLEW\LIB\GLEW32S.LIB
C:\USERS\VCL\DOWNLOADS\OPENGL\GLEW\LIB\GLEW32.LIB
C:\USERS\VCL\DOWNLOADS\OPENGL\GLFW\RELEASE\GLFW3.LIB
C:\USERS\VCL\DOWNLOADS\OPENCV3.0RC1\OPENCV\BUILD\X64\VC12\LIB\OPENCV_WORLD300D.LIB
C:\USERS\VCL\DOWNLOADS\OPENCV3.0RC1\OPENCV\BUILD\X64\VC12\LIB\OPENCV_TS300D.LIB
C:\USERS\VCL\DOWNLOADS\OPENCV3.0RC1\OPENCV\BUILD\X64\VC12\LIB\OPENCV_XFEATURES2D300D.LIB
C:\PROGRAM FILES (X86)\WINDOWS KITS\8.1\LIB\WINV6.3\UM\X64\KERNEL32.LIB
C:\PROGRAM FILES (X86)\WINDOWS KITS\8.1\LIB\WINV6.3\UM\X64\USER32.LIB
C:\PROGRAM FILES (X86)\WINDOWS KITS\8.1\LIB\WINV6.3\UM\X64\GDI32.LIB
C:\PROGRAM FILES (X86)\WINDOWS KITS\8.1\LIB\WINV6.3\UM\X64\WINSPOOL.LIB
C:\PROGRAM FILES (X86)\WINDOWS KITS\8.1\LIB\WINV6.3\UM\X64\COMDLG32.LIB
C:\PROGRAM FILES (X86)\WINDOWS KITS\8.1\LIB\WINV6.3\UM\X64\ADVAPI32.LIB
C:\PROGRAM FILES (X86)\WINDOWS KITS\8.1\LIB\WINV6.3\UM\X64\SHELL32.LIB
C:\PROGRAM FILES (X86)\WINDOWS KITS\8.1\LIB\WINV6.3\UM\X64\OLE32.LIB
C:\PROGRAM FILES (X86)\WINDOWS KITS\8.1\LIB\WINV6.3\UM\X64\OLEAUT32.LIB
C:\PROGRAM FILES (X86)\WINDOWS KITS\8.1\LIB\WINV6.3\UM\X64\UUID.LIB
C:\PROGRAM FILES (X86)\WINDOWS KITS\8.1\LIB\WINV6.3\UM\X64\ODBC32.LIB
C:\PROGRAM FILES (X86)\WINDOWS KITS\8.1\LIB\WINV6.3\UM\X64\ODBCCP32.LIB
C:\USERS\VCL\DOWNLOADS\SBA-1.6\BUILD\RELEASE\SBA.LIB
C:\USERS\VCL\DOWNLOADS\CLAPACK-3.2.1-CMAKE\BUILD\SRC\RELEASE\LAPACK.LIB
C:\USERS\VCL\DOWNLOADS\CLAPACK-3.2.1-CMAKE\BUILD\BLAS\SRC\RELEASE\BLAS.LIB
C:\USERS\VCL\DOWNLOADS\CLAPACK-3.2.1-CMAKE\BUILD\F2CLIBS\LIBF2C\RELEASE\LIBF2C.LIB
C:\USERS\VCL\DOCUMENTS\VISUAL STUDIO 2013\PROJECTS\PTAM - SIFT\PTAM\X64\DEBUG\SHADER.OBJ
C:\USERS\VCL\DOCUMENTS\VISUAL STUDIO 2013\PROJECTS\PTAM - SIFT\PTAM\X64\DEBUG\MAIN.OBJ
C:\USERS\VCL\DOCUMENTS\VISUAL STUDIO 2013\PROJECTS\PTAM - SIFT\PTAM\X64\DEBUG\GLVIEW.OBJ
C:\USERS\VCL\DOCUMENTS\VISUAL STUDIO 2013\PROJECTS\PTAM - SIFT\PTAM\X64\DEBUG\IMAGEDATA.OBJ
C:\USERS\VCL\DOCUMENTS\VISUAL STUDIO 2013\PROJECTS\PTAM - SIFT\PTAM\X64\DEBUG\KEYFRAME.OBJ
C:\USERS\VCL\DOCUMENTS\VISUAL STUDIO 2013\PROJECTS\PTAM - SIFT\PTAM\X64\DEBUG\MAP.OBJ
C:\USERS\VCL\DOCUMENTS\VISUAL STUDIO 2013\PROJECTS\PTAM - SIFT\PTAM\X64\DEBUG\RESULTMAP.OBJ
C:\USERS\VCL\DOCUMENTS\VISUAL STUDIO 2013\PROJECTS\PTAM - SIFT\PTAM\X64\DEBUG\STDAFX.OBJ
C:\WINDOWS\SYSTEM32\TZRES.DLL
C:\PROGRAM FILES (X86)\MICROSOFT VISUAL STUDIO 12.0\VC\LIB\AMD64\MSVCPRTD.LIB
C:\PROGRAM FILES (X86)\MICROSOFT VISUAL STUDIO 12.0\VC\LIB\AMD64\MSVCRTD.LIB
C:\PROGRAM FILES (X86)\MICROSOFT VISUAL STUDIO 12.0\VC\LIB\AMD64\OLDNAMES.LIB
C:\PROGRAM FILES (X86)\MICROSOFT VISUAL STUDIO 12.0\VC\LIB\AMD64\MSVCRT.LIB
