^C:\USERS\VCL\DOCUMENTS\VISUAL STUDIO 2013\PROJECTS\PTAM\PTAM\STDAFX.CPP
/c /I"C:\Program Files\SoftKinetic\DepthSenseSDK\include" /IC:\Users\VCL\Downloads\opencv3.0\opencv\build\include /Iheader /IC:\Users\VCL\Downloads\opengl\glew\include /I"C:\Users\VCL\Downloads\glm-0.9.5.3\glm" /IC:\Users\VCL\Downloads\opengl\glfw\include /I../ /Zi /nologo /W3 /WX- /sdl /O2 /Oi /GL /D WIN32 /D NDEBUG /D _CONSOLE /D _LIB /D _UNICODE /D UNICODE /Gm- /EHsc /MD /GS /Gy /fp:precise /Zc:wchar_t /Zc:forScope /Yc"stdafx.h" /Fp"X64\RELEASE\PTAM.PCH" /Fo"X64\RELEASE\\" /Fd"X64\RELEASE\VC120.PDB" /Gd /TP C:\USERS\VCL\DOCUMENTS\VISUAL STUDIO 2013\PROJECTS\PTAM\PTAM\STDAFX.CPP
^C:\USERS\VCL\DOCUMENTS\VISUAL STUDIO 2013\PROJECTS\PTAM\PTAM\COMMON\SHADER.CPP
/c /I"C:\Program Files\SoftKinetic\DepthSenseSDK\include" /IC:\Users\VCL\Downloads\opencv3.0\opencv\build\include /Iheader /IC:\Users\VCL\Downloads\opengl\glew\include /I"C:\Users\VCL\Downloads\glm-0.9.5.3\glm" /IC:\Users\VCL\Downloads\opengl\glfw\include /I../ /Zi /nologo /W3 /WX- /sdl /O2 /Oi /GL /D WIN32 /D NDEBUG /D _CONSOLE /D _LIB /D _UNICODE /D UNICODE /Gm- /EHsc /MD /GS /Gy /fp:precise /Zc:wchar_t /Zc:forScope /Fo"X64\RELEASE\\" /Fd"X64\RELEASE\VC120.PDB" /Gd /TP C:\USERS\VCL\DOCUMENTS\VISUAL STUDIO 2013\PROJECTS\PTAM\PTAM\COMMON\SHADER.CPP
^C:\USERS\VCL\DOCUMENTS\VISUAL STUDIO 2013\PROJECTS\PTAM\PTAM\SRC\GLVIEW.CPP
/c /I"C:\Program Files\SoftKinetic\DepthSenseSDK\include" /IC:\Users\VCL\Downloads\opencv3.0\opencv\build\include /Iheader /IC:\Users\VCL\Downloads\opengl\glew\include /I"C:\Users\VCL\Downloads\glm-0.9.5.3\glm" /IC:\Users\VCL\Downloads\opengl\glfw\include /I../ /Zi /nologo /W3 /WX- /sdl /O2 /Oi /GL /D WIN32 /D NDEBUG /D _CONSOLE /D _LIB /D _UNICODE /D UNICODE /Gm- /EHsc /MD /GS /Gy /fp:precise /Zc:wchar_t /Zc:forScope /Fo"X64\RELEASE\\" /Fd"X64\RELEASE\VC120.PDB" /Gd /TP C:\USERS\VCL\DOCUMENTS\VISUAL STUDIO 2013\PROJECTS\PTAM\PTAM\SRC\GLVIEW.CPP
^C:\USERS\VCL\DOCUMENTS\VISUAL STUDIO 2013\PROJECTS\PTAM\PTAM\SRC\CVSBA.CPP
/c /I"C:\Program Files\SoftKinetic\DepthSenseSDK\include" /IC:\Users\VCL\Downloads\opencv3.0\opencv\build\include /Iheader /IC:\Users\VCL\Downloads\opengl\glew\include /I"C:\Users\VCL\Downloads\glm-0.9.5.3\glm" /IC:\Users\VCL\Downloads\opengl\glfw\include /I../ /Zi /nologo /W3 /WX- /sdl /O2 /Oi /GL /D WIN32 /D NDEBUG /D _CONSOLE /D _LIB /D _UNICODE /D UNICODE /Gm- /EHsc /MD /GS /Gy /fp:precise /Zc:wchar_t /Zc:forScope /Fo"X64\RELEASE\\" /Fd"X64\RELEASE\VC120.PDB" /Gd /TP C:\USERS\VCL\DOCUMENTS\VISUAL STUDIO 2013\PROJECTS\PTAM\PTAM\SRC\CVSBA.CPP
^C:\USERS\VCL\DOCUMENTS\VISUAL STUDIO 2013\PROJECTS\PTAM_CVSBA 포함\PTAM\STDAFX.CPP
/c /I"C:\Program Files\SoftKinetic\DepthSenseSDK\include" /IC:\Users\VCL\Downloads\opencv3.0\opencv\build\include /Iheader /IC:\Users\VCL\Downloads\opengl\glew\include /I"C:\Users\VCL\Downloads\glm-0.9.5.3\glm" /IC:\Users\VCL\Downloads\opengl\glfw\include /I../ /Zi /nologo /W3 /WX- /sdl /O2 /Oi /GL /D WIN32 /D NDEBUG /D _CONSOLE /D _LIB /D _UNICODE /D UNICODE /Gm- /EHsc /MD /GS /Gy /fp:precise /Zc:wchar_t /Zc:forScope /Yc"stdafx.h" /Fp"X64\RELEASE\PTAM.PCH" /Fo"X64\RELEASE\\" /Fd"X64\RELEASE\VC120.PDB" /Gd /TP C:\USERS\VCL\DOCUMENTS\VISUAL STUDIO 2013\PROJECTS\PTAM_CVSBA 포함\PTAM\STDAFX.CPP
^C:\USERS\VCL\DOCUMENTS\VISUAL STUDIO 2013\PROJECTS\PTAM_CVSBA 포함\PTAM\COMMON\SHADER.CPP
/c /I"C:\Program Files\SoftKinetic\DepthSenseSDK\include" /IC:\Users\VCL\Downloads\opencv3.0\opencv\build\include /Iheader /IC:\Users\VCL\Downloads\opengl\glew\include /I"C:\Users\VCL\Downloads\glm-0.9.5.3\glm" /IC:\Users\VCL\Downloads\opengl\glfw\include /I../ /Zi /nologo /W3 /WX- /sdl /O2 /Oi /GL /D WIN32 /D NDEBUG /D _CONSOLE /D _LIB /D _UNICODE /D UNICODE /Gm- /EHsc /MD /GS /Gy /fp:precise /Zc:wchar_t /Zc:forScope /Fo"X64\RELEASE\\" /Fd"X64\RELEASE\VC120.PDB" /Gd /TP C:\USERS\VCL\DOCUMENTS\VISUAL STUDIO 2013\PROJECTS\PTAM_CVSBA 포함\PTAM\COMMON\SHADER.CPP
^C:\USERS\VCL\DOCUMENTS\VISUAL STUDIO 2013\PROJECTS\PTAM_CVSBA 포함\PTAM\SRC\CVSBA.CPP
/c /I"C:\Program Files\SoftKinetic\DepthSenseSDK\include" /IC:\Users\VCL\Downloads\opencv3.0\opencv\build\include /Iheader /IC:\Users\VCL\Downloads\opengl\glew\include /I"C:\Users\VCL\Downloads\glm-0.9.5.3\glm" /IC:\Users\VCL\Downloads\opengl\glfw\include /I../ /Zi /nologo /W3 /WX- /sdl /O2 /Oi /GL /D WIN32 /D NDEBUG /D _CONSOLE /D _LIB /D _UNICODE /D UNICODE /Gm- /EHsc /MD /GS /Gy /fp:precise /Zc:wchar_t /Zc:forScope /Fo"X64\RELEASE\\" /Fd"X64\RELEASE\VC120.PDB" /Gd /TP C:\USERS\VCL\DOCUMENTS\VISUAL STUDIO 2013\PROJECTS\PTAM_CVSBA 포함\PTAM\SRC\CVSBA.CPP
^C:\USERS\VCL\DOCUMENTS\VISUAL STUDIO 2013\PROJECTS\PTAM_CVSBA 포함\PTAM\SRC\IMAGEDATA.CPP
/c /I"C:\Program Files\SoftKinetic\DepthSenseSDK\include" /IC:\Users\VCL\Downloads\opencv3.0\opencv\build\include /Iheader /IC:\Users\VCL\Downloads\opengl\glew\include /I"C:\Users\VCL\Downloads\glm-0.9.5.3\glm" /IC:\Users\VCL\Downloads\opengl\glfw\include /I../ /Zi /nologo /W3 /WX- /sdl /O2 /Oi /GL /D WIN32 /D NDEBUG /D _CONSOLE /D _LIB /D _UNICODE /D UNICODE /Gm- /EHsc /MD /GS /Gy /fp:precise /Zc:wchar_t /Zc:forScope /Fo"X64\RELEASE\\" /Fd"X64\RELEASE\VC120.PDB" /Gd /TP C:\USERS\VCL\DOCUMENTS\VISUAL STUDIO 2013\PROJECTS\PTAM_CVSBA 포함\PTAM\SRC\IMAGEDATA.CPP
^C:\USERS\VCL\DOCUMENTS\VISUAL STUDIO 2013\PROJECTS\PTAM_CVSBA 포함\PTAM\SRC\KEYFRAME.CPP
/c /I"C:\Program Files\SoftKinetic\DepthSenseSDK\include" /IC:\Users\VCL\Downloads\opencv3.0\opencv\build\include /Iheader /IC:\Users\VCL\Downloads\opengl\glew\include /I"C:\Users\VCL\Downloads\glm-0.9.5.3\glm" /IC:\Users\VCL\Downloads\opengl\glfw\include /I../ /Zi /nologo /W3 /WX- /sdl /O2 /Oi /GL /D WIN32 /D NDEBUG /D _CONSOLE /D _LIB /D _UNICODE /D UNICODE /Gm- /EHsc /MD /GS /Gy /fp:precise /Zc:wchar_t /Zc:forScope /Fo"X64\RELEASE\\" /Fd"X64\RELEASE\VC120.PDB" /Gd /TP C:\USERS\VCL\DOCUMENTS\VISUAL STUDIO 2013\PROJECTS\PTAM_CVSBA 포함\PTAM\SRC\KEYFRAME.CPP
^C:\USERS\VCL\DOCUMENTS\VISUAL STUDIO 2013\PROJECTS\PTAM_CVSBA 포함\PTAM\SRC\MAP.CPP
/c /I"C:\Program Files\SoftKinetic\DepthSenseSDK\include" /IC:\Users\VCL\Downloads\opencv3.0\opencv\build\include /Iheader /IC:\Users\VCL\Downloads\opengl\glew\include /I"C:\Users\VCL\Downloads\glm-0.9.5.3\glm" /IC:\Users\VCL\Downloads\opengl\glfw\include /I../ /Zi /nologo /W3 /WX- /sdl /O2 /Oi /GL /D WIN32 /D NDEBUG /D _CONSOLE /D _LIB /D _UNICODE /D UNICODE /Gm- /EHsc /MD /GS /Gy /fp:precise /Zc:wchar_t /Zc:forScope /Fo"X64\RELEASE\\" /Fd"X64\RELEASE\VC120.PDB" /Gd /TP C:\USERS\VCL\DOCUMENTS\VISUAL STUDIO 2013\PROJECTS\PTAM_CVSBA 포함\PTAM\SRC\MAP.CPP
^C:\USERS\VCL\DOCUMENTS\VISUAL STUDIO 2013\PROJECTS\PTAM_CVSBA 포함\PTAM\SRC\RESULTMAP.CPP
/c /I"C:\Program Files\SoftKinetic\DepthSenseSDK\include" /IC:\Users\VCL\Downloads\opencv3.0\opencv\build\include /Iheader /IC:\Users\VCL\Downloads\opengl\glew\include /I"C:\Users\VCL\Downloads\glm-0.9.5.3\glm" /IC:\Users\VCL\Downloads\opengl\glfw\include /I../ /Zi /nologo /W3 /WX- /sdl /O2 /Oi /GL /D WIN32 /D NDEBUG /D _CONSOLE /D _LIB /D _UNICODE /D UNICODE /Gm- /EHsc /MD /GS /Gy /fp:precise /Zc:wchar_t /Zc:forScope /Fo"X64\RELEASE\\" /Fd"X64\RELEASE\VC120.PDB" /Gd /TP C:\USERS\VCL\DOCUMENTS\VISUAL STUDIO 2013\PROJECTS\PTAM_CVSBA 포함\PTAM\SRC\RESULTMAP.CPP
^C:\USERS\VCL\DOCUMENTS\VISUAL STUDIO 2013\PROJECTS\PTAM_CVSBA 포함\PTAM\MAIN.CPP
/c /I"C:\Program Files\SoftKinetic\DepthSenseSDK\include" /IC:\Users\VCL\Downloads\opencv3.0\opencv\build\include /Iheader /IC:\Users\VCL\Downloads\opengl\glew\include /I"C:\Users\VCL\Downloads\glm-0.9.5.3\glm" /IC:\Users\VCL\Downloads\opengl\glfw\include /I../ /Zi /nologo /W3 /WX- /sdl /O2 /Oi /GL /D WIN32 /D NDEBUG /D _CONSOLE /D _LIB /D _UNICODE /D UNICODE /Gm- /EHsc /MD /GS /Gy /fp:precise /Zc:wchar_t /Zc:forScope /Fo"X64\RELEASE\\" /Fd"X64\RELEASE\VC120.PDB" /Gd /TP C:\USERS\VCL\DOCUMENTS\VISUAL STUDIO 2013\PROJECTS\PTAM_CVSBA 포함\PTAM\MAIN.CPP
^C:\USERS\VCL\DOCUMENTS\VISUAL STUDIO 2013\PROJECTS\PTAM_CVSBA 포함\PTAM\SRC\GLVIEW.CPP
/c /I"C:\Program Files\SoftKinetic\DepthSenseSDK\include" /IC:\Users\VCL\Downloads\opencv3.0\opencv\build\include /Iheader /IC:\Users\VCL\Downloads\opengl\glew\include /I"C:\Users\VCL\Downloads\glm-0.9.5.3\glm" /IC:\Users\VCL\Downloads\opengl\glfw\include /I../ /Zi /nologo /W3 /WX- /sdl /O2 /Oi /GL /D WIN32 /D NDEBUG /D _CONSOLE /D _LIB /D _UNICODE /D UNICODE /Gm- /EHsc /MD /GS /Gy /fp:precise /Zc:wchar_t /Zc:forScope /Fo"X64\RELEASE\\" /Fd"X64\RELEASE\VC120.PDB" /Gd /TP C:\USERS\VCL\DOCUMENTS\VISUAL STUDIO 2013\PROJECTS\PTAM_CVSBA 포함\PTAM\SRC\GLVIEW.CPP
^C:\USERS\VCL\DOCUMENTS\VISUAL STUDIO 2013\PROJECTS\PTAM\PTAM\SRC\KEYFRAME.CPP
/c /I"C:\Program Files\SoftKinetic\DepthSenseSDK\include" /IC:\Users\VCL\Downloads\opencv3.0\opencv\build\include /Iheader /IC:\Users\VCL\Downloads\opengl\glew\include /I"C:\Users\VCL\Downloads\glm-0.9.5.3\glm" /IC:\Users\VCL\Downloads\opengl\glfw\include /I../ /Zi /nologo /W3 /WX- /sdl /O2 /Oi /GL /D WIN32 /D NDEBUG /D _CONSOLE /D _LIB /D _UNICODE /D UNICODE /Gm- /EHsc /MD /GS /Gy /fp:precise /Zc:wchar_t /Zc:forScope /Fo"X64\RELEASE\\" /Fd"X64\RELEASE\VC120.PDB" /Gd /TP C:\USERS\VCL\DOCUMENTS\VISUAL STUDIO 2013\PROJECTS\PTAM\PTAM\SRC\KEYFRAME.CPP
^C:\USERS\VCL\DOCUMENTS\VISUAL STUDIO 2013\PROJECTS\PTAM\PTAM\SRC\RESULTMAP.CPP
/c /I"C:\Program Files\SoftKinetic\DepthSenseSDK\include" /IC:\Users\VCL\Downloads\opencv3.0\opencv\build\include /Iheader /IC:\Users\VCL\Downloads\opengl\glew\include /I"C:\Users\VCL\Downloads\glm-0.9.5.3\glm" /IC:\Users\VCL\Downloads\opengl\glfw\include /I../ /Zi /nologo /W3 /WX- /sdl /O2 /Oi /GL /D WIN32 /D NDEBUG /D _CONSOLE /D _LIB /D _UNICODE /D UNICODE /Gm- /EHsc /MD /GS /Gy /fp:precise /Zc:wchar_t /Zc:forScope /Fo"X64\RELEASE\\" /Fd"X64\RELEASE\VC120.PDB" /Gd /TP C:\USERS\VCL\DOCUMENTS\VISUAL STUDIO 2013\PROJECTS\PTAM\PTAM\SRC\RESULTMAP.CPP
^C:\USERS\VCL\DOCUMENTS\VISUAL STUDIO 2013\PROJECTS\PTAM\PTAM\SRC\MAP.CPP
/c /I"C:\Program Files\SoftKinetic\DepthSenseSDK\include" /IC:\Users\VCL\Downloads\opencv3.0\opencv\build\include /Iheader /IC:\Users\VCL\Downloads\opengl\glew\include /I"C:\Users\VCL\Downloads\glm-0.9.5.3\glm" /IC:\Users\VCL\Downloads\opengl\glfw\include /I../ /Zi /nologo /W3 /WX- /sdl /O2 /Oi /GL /D WIN32 /D NDEBUG /D _CONSOLE /D _LIB /D _UNICODE /D UNICODE /Gm- /EHsc /MD /GS /Gy /fp:precise /Zc:wchar_t /Zc:forScope /Fo"X64\RELEASE\\" /Fd"X64\RELEASE\VC120.PDB" /Gd /TP C:\USERS\VCL\DOCUMENTS\VISUAL STUDIO 2013\PROJECTS\PTAM\PTAM\SRC\MAP.CPP
^C:\USERS\VCL\DOCUMENTS\VISUAL STUDIO 2013\PROJECTS\PTAM\PTAM\MAIN.CPP
/c /I"C:\Program Files\SoftKinetic\DepthSenseSDK\include" /IC:\Users\VCL\Downloads\opencv3.0\opencv\build\include /Iheader /IC:\Users\VCL\Downloads\opengl\glew\include /I"C:\Users\VCL\Downloads\glm-0.9.5.3\glm" /IC:\Users\VCL\Downloads\opengl\glfw\include /I../ /Zi /nologo /W3 /WX- /sdl /O2 /Oi /GL /D WIN32 /D NDEBUG /D _CONSOLE /D _LIB /D _UNICODE /D UNICODE /Gm- /EHsc /MD /GS /Gy /fp:precise /Zc:wchar_t /Zc:forScope /Fo"X64\RELEASE\\" /Fd"X64\RELEASE\VC120.PDB" /Gd /TP C:\USERS\VCL\DOCUMENTS\VISUAL STUDIO 2013\PROJECTS\PTAM\PTAM\MAIN.CPP
^C:\USERS\VCL\DOCUMENTS\VISUAL STUDIO 2013\PROJECTS\PTAM\PTAM\SRC\IMAGEDATA.CPP
/c /I"C:\Program Files\SoftKinetic\DepthSenseSDK\include" /IC:\Users\VCL\Downloads\opencv3.0\opencv\build\include /Iheader /IC:\Users\VCL\Downloads\opengl\glew\include /I"C:\Users\VCL\Downloads\glm-0.9.5.3\glm" /IC:\Users\VCL\Downloads\opengl\glfw\include /I../ /Zi /nologo /W3 /WX- /sdl /O2 /Oi /GL /D WIN32 /D NDEBUG /D _CONSOLE /D _LIB /D _UNICODE /D UNICODE /Gm- /EHsc /MD /GS /Gy /fp:precise /Zc:wchar_t /Zc:forScope /Fo"X64\RELEASE\\" /Fd"X64\RELEASE\VC120.PDB" /Gd /TP C:\USERS\VCL\DOCUMENTS\VISUAL STUDIO 2013\PROJECTS\PTAM\PTAM\SRC\IMAGEDATA.CPP
^C:\USERS\VCL\DOCUMENTS\VISUAL STUDIO 2013\PROJECTS\PTAM - SIFT\PTAM\STDAFX.CPP
/c /I"C:\Program Files\SoftKinetic\DepthSenseSDK\include" /IC:\Users\VCL\Downloads\opencv3.0rc1\opencv\build\include /Iheader /IC:\Users\VCL\Downloads\opengl\glew\include /I"C:\Users\VCL\Downloads\glm-0.9.5.3\glm" /IC:\Users\VCL\Downloads\opengl\glfw\include /I../ /Zi /nologo /W3 /WX- /sdl /O2 /Oi /GL /D WIN32 /D NDEBUG /D _CONSOLE /D _LIB /D _UNICODE /D UNICODE /Gm- /EHsc /MD /GS /Gy /fp:precise /Zc:wchar_t /Zc:forScope /Yc"stdafx.h" /Fp"X64\RELEASE\PTAM.PCH" /Fo"X64\RELEASE\\" /Fd"X64\RELEASE\VC120.PDB" /Gd /TP C:\USERS\VCL\DOCUMENTS\VISUAL STUDIO 2013\PROJECTS\PTAM - SIFT\PTAM\STDAFX.CPP
^C:\USERS\VCL\DOCUMENTS\VISUAL STUDIO 2013\PROJECTS\PTAM - SIFT\PTAM\COMMON\SHADER.CPP
/c /I"C:\Program Files\SoftKinetic\DepthSenseSDK\include" /IC:\Users\VCL\Downloads\opencv3.0rc1\opencv\build\include /Iheader /IC:\Users\VCL\Downloads\opengl\glew\include /I"C:\Users\VCL\Downloads\glm-0.9.5.3\glm" /IC:\Users\VCL\Downloads\opengl\glfw\include /I../ /Zi /nologo /W3 /WX- /sdl /O2 /Oi /GL /D WIN32 /D NDEBUG /D _CONSOLE /D _LIB /D _UNICODE /D UNICODE /Gm- /EHsc /MD /GS /Gy /fp:precise /Zc:wchar_t /Zc:forScope /Fo"X64\RELEASE\\" /Fd"X64\RELEASE\VC120.PDB" /Gd /TP C:\USERS\VCL\DOCUMENTS\VISUAL STUDIO 2013\PROJECTS\PTAM - SIFT\PTAM\COMMON\SHADER.CPP
^C:\USERS\VCL\DOCUMENTS\VISUAL STUDIO 2013\PROJECTS\PTAM - SIFT\PTAM\SRC\RESULTMAP.CPP
/c /I"C:\Program Files\SoftKinetic\DepthSenseSDK\include" /IC:\Users\VCL\Downloads\opencv3.0rc1\opencv\build\include /Iheader /IC:\Users\VCL\Downloads\opengl\glew\include /I"C:\Users\VCL\Downloads\glm-0.9.5.3\glm" /IC:\Users\VCL\Downloads\opengl\glfw\include /I../ /Zi /nologo /W3 /WX- /sdl /O2 /Oi /GL /D WIN32 /D NDEBUG /D _CONSOLE /D _LIB /D _UNICODE /D UNICODE /Gm- /EHsc /MD /GS /Gy /fp:precise /Zc:wchar_t /Zc:forScope /Fo"X64\RELEASE\\" /Fd"X64\RELEASE\VC120.PDB" /Gd /TP C:\USERS\VCL\DOCUMENTS\VISUAL STUDIO 2013\PROJECTS\PTAM - SIFT\PTAM\SRC\RESULTMAP.CPP
^C:\USERS\VCL\DOCUMENTS\VISUAL STUDIO 2013\PROJECTS\PTAM - SIFT\PTAM\SRC\GLVIEW.CPP
/c /I"C:\Program Files\SoftKinetic\DepthSenseSDK\include" /IC:\Users\VCL\Downloads\opencv3.0rc1\opencv\build\include /Iheader /IC:\Users\VCL\Downloads\opengl\glew\include /I"C:\Users\VCL\Downloads\glm-0.9.5.3\glm" /IC:\Users\VCL\Downloads\opengl\glfw\include /I../ /Zi /nologo /W3 /WX- /sdl /O2 /Oi /GL /D WIN32 /D NDEBUG /D _CONSOLE /D _LIB /D _UNICODE /D UNICODE /Gm- /EHsc /MD /GS /Gy /fp:precise /Zc:wchar_t /Zc:forScope /Fo"X64\RELEASE\\" /Fd"X64\RELEASE\VC120.PDB" /Gd /TP C:\USERS\VCL\DOCUMENTS\VISUAL STUDIO 2013\PROJECTS\PTAM - SIFT\PTAM\SRC\GLVIEW.CPP
^C:\USERS\VCL\DOCUMENTS\VISUAL STUDIO 2013\PROJECTS\PTAM - SIFT\PTAM\SRC\IMAGEDATA.CPP
/c /I"C:\Program Files\SoftKinetic\DepthSenseSDK\include" /IC:\Users\VCL\Downloads\opencv3.0rc1\opencv\build\include /Iheader /IC:\Users\VCL\Downloads\opengl\glew\include /I"C:\Users\VCL\Downloads\glm-0.9.5.3\glm" /IC:\Users\VCL\Downloads\opengl\glfw\include /I../ /Zi /nologo /W3 /WX- /sdl /O2 /Oi /GL /D WIN32 /D NDEBUG /D _CONSOLE /D _LIB /D _UNICODE /D UNICODE /Gm- /EHsc /MD /GS /Gy /fp:precise /Zc:wchar_t /Zc:forScope /Fo"X64\RELEASE\\" /Fd"X64\RELEASE\VC120.PDB" /Gd /TP C:\USERS\VCL\DOCUMENTS\VISUAL STUDIO 2013\PROJECTS\PTAM - SIFT\PTAM\SRC\IMAGEDATA.CPP
^C:\USERS\VCL\DOCUMENTS\VISUAL STUDIO 2013\PROJECTS\PTAM - SIFT\PTAM\SRC\MAP.CPP
/c /I"C:\Program Files\SoftKinetic\DepthSenseSDK\include" /IC:\Users\VCL\Downloads\opencv3.0rc1\opencv\build\include /Iheader /IC:\Users\VCL\Downloads\opengl\glew\include /I"C:\Users\VCL\Downloads\glm-0.9.5.3\glm" /IC:\Users\VCL\Downloads\opengl\glfw\include /I../ /Zi /nologo /W3 /WX- /sdl /O2 /Oi /GL /D WIN32 /D NDEBUG /D _CONSOLE /D _LIB /D _UNICODE /D UNICODE /Gm- /EHsc /MD /GS /Gy /fp:precise /Zc:wchar_t /Zc:forScope /Fo"X64\RELEASE\\" /Fd"X64\RELEASE\VC120.PDB" /Gd /TP C:\USERS\VCL\DOCUMENTS\VISUAL STUDIO 2013\PROJECTS\PTAM - SIFT\PTAM\SRC\MAP.CPP
^C:\USERS\VCL\DOCUMENTS\VISUAL STUDIO 2013\PROJECTS\PTAM - SIFT\PTAM\SRC\KEYFRAME.CPP
/c /I"C:\Program Files\SoftKinetic\DepthSenseSDK\include" /IC:\Users\VCL\Downloads\opencv3.0rc1\opencv\build\include /Iheader /IC:\Users\VCL\Downloads\opengl\glew\include /I"C:\Users\VCL\Downloads\glm-0.9.5.3\glm" /IC:\Users\VCL\Downloads\opengl\glfw\include /I../ /Zi /nologo /W3 /WX- /sdl /O2 /Oi /GL /D WIN32 /D NDEBUG /D _CONSOLE /D _LIB /D _UNICODE /D UNICODE /Gm- /EHsc /MD /GS /Gy /fp:precise /Zc:wchar_t /Zc:forScope /Fo"X64\RELEASE\\" /Fd"X64\RELEASE\VC120.PDB" /Gd /TP C:\USERS\VCL\DOCUMENTS\VISUAL STUDIO 2013\PROJECTS\PTAM - SIFT\PTAM\SRC\KEYFRAME.CPP
^C:\USERS\VCL\DOCUMENTS\VISUAL STUDIO 2013\PROJECTS\PTAM - SIFT\PTAM\MAIN.CPP
/c /I"C:\Program Files\SoftKinetic\DepthSenseSDK\include" /IC:\Users\VCL\Downloads\opencv3.0rc1\opencv\build\include /Iheader /IC:\Users\VCL\Downloads\opengl\glew\include /I"C:\Users\VCL\Downloads\glm-0.9.5.3\glm" /IC:\Users\VCL\Downloads\opengl\glfw\include /I../ /Zi /nologo /W3 /WX- /sdl /O2 /Oi /GL /D WIN32 /D NDEBUG /D _CONSOLE /D _LIB /D _UNICODE /D UNICODE /Gm- /EHsc /MD /GS /Gy /fp:precise /Zc:wchar_t /Zc:forScope /Fo"X64\RELEASE\\" /Fd"X64\RELEASE\VC120.PDB" /Gd /TP C:\USERS\VCL\DOCUMENTS\VISUAL STUDIO 2013\PROJECTS\PTAM - SIFT\PTAM\MAIN.CPP
^C:\USERS\VCL\DOCUMENTS\VISUAL STUDIO 2013\PROJECTS\PTAM - SIFT DEPTHMAP\PTAM\STDAFX.CPP
/c /I"C:\Program Files\SoftKinetic\DepthSenseSDK\include" /IC:\Users\VCL\Downloads\opencv3.0rc1\opencv\build\include /Iheader /IC:\Users\VCL\Downloads\opengl\glew\include /I"C:\Users\VCL\Downloads\glm-0.9.5.3\glm" /IC:\Users\VCL\Downloads\opengl\glfw\include /I../ /Zi /nologo /W3 /WX- /sdl /O2 /Oi /GL /D WIN32 /D NDEBUG /D _CONSOLE /D _LIB /D _UNICODE /D UNICODE /Gm- /EHsc /MD /GS /Gy /fp:precise /Zc:wchar_t /Zc:forScope /Yc"stdafx.h" /Fp"X64\RELEASE\PTAM.PCH" /Fo"X64\RELEASE\\" /Fd"X64\RELEASE\VC120.PDB" /Gd /TP C:\USERS\VCL\DOCUMENTS\VISUAL STUDIO 2013\PROJECTS\PTAM - SIFT DEPTHMAP\PTAM\STDAFX.CPP
^C:\USERS\VCL\DOCUMENTS\VISUAL STUDIO 2013\PROJECTS\PTAM - SIFT DEPTHMAP\PTAM\COMMON\SHADER.CPP
/c /I"C:\Program Files\SoftKinetic\DepthSenseSDK\include" /IC:\Users\VCL\Downloads\opencv3.0rc1\opencv\build\include /Iheader /IC:\Users\VCL\Downloads\opengl\glew\include /I"C:\Users\VCL\Downloads\glm-0.9.5.3\glm" /IC:\Users\VCL\Downloads\opengl\glfw\include /I../ /Zi /nologo /W3 /WX- /sdl /O2 /Oi /GL /D WIN32 /D NDEBUG /D _CONSOLE /D _LIB /D _UNICODE /D UNICODE /Gm- /EHsc /MD /GS /Gy /fp:precise /Zc:wchar_t /Zc:forScope /Fo"X64\RELEASE\\" /Fd"X64\RELEASE\VC120.PDB" /Gd /TP C:\USERS\VCL\DOCUMENTS\VISUAL STUDIO 2013\PROJECTS\PTAM - SIFT DEPTHMAP\PTAM\COMMON\SHADER.CPP
^C:\USERS\VCL\DOCUMENTS\VISUAL STUDIO 2013\PROJECTS\PTAM - SIFT DEPTHMAP\PTAM\SRC\IMAGEDATA.CPP
/c /I"C:\Program Files\SoftKinetic\DepthSenseSDK\include" /IC:\Users\VCL\Downloads\opencv3.0rc1\opencv\build\include /Iheader /IC:\Users\VCL\Downloads\opengl\glew\include /I"C:\Users\VCL\Downloads\glm-0.9.5.3\glm" /IC:\Users\VCL\Downloads\opengl\glfw\include /I../ /Zi /nologo /W3 /WX- /sdl /O2 /Oi /GL /D WIN32 /D NDEBUG /D _CONSOLE /D _LIB /D _UNICODE /D UNICODE /Gm- /EHsc /MD /GS /Gy /fp:precise /Zc:wchar_t /Zc:forScope /Fo"X64\RELEASE\\" /Fd"X64\RELEASE\VC120.PDB" /Gd /TP C:\USERS\VCL\DOCUMENTS\VISUAL STUDIO 2013\PROJECTS\PTAM - SIFT DEPTHMAP\PTAM\SRC\IMAGEDATA.CPP
^C:\USERS\VCL\DOCUMENTS\VISUAL STUDIO 2013\PROJECTS\PTAM - SIFT DEPTHMAP\PTAM\SRC\GLVIEW.CPP
/c /I"C:\Program Files\SoftKinetic\DepthSenseSDK\include" /IC:\Users\VCL\Downloads\opencv3.0rc1\opencv\build\include /Iheader /IC:\Users\VCL\Downloads\opengl\glew\include /I"C:\Users\VCL\Downloads\glm-0.9.5.3\glm" /IC:\Users\VCL\Downloads\opengl\glfw\include /I../ /Zi /nologo /W3 /WX- /sdl /O2 /Oi /GL /D WIN32 /D NDEBUG /D _CONSOLE /D _LIB /D _UNICODE /D UNICODE /Gm- /EHsc /MD /GS /Gy /fp:precise /Zc:wchar_t /Zc:forScope /Fo"X64\RELEASE\\" /Fd"X64\RELEASE\VC120.PDB" /Gd /TP C:\USERS\VCL\DOCUMENTS\VISUAL STUDIO 2013\PROJECTS\PTAM - SIFT DEPTHMAP\PTAM\SRC\GLVIEW.CPP
^C:\USERS\VCL\DOCUMENTS\VISUAL STUDIO 2013\PROJECTS\PTAM - SIFT DEPTHMAP\PTAM\SRC\RESULTMAP.CPP
/c /I"C:\Program Files\SoftKinetic\DepthSenseSDK\include" /IC:\Users\VCL\Downloads\opencv3.0rc1\opencv\build\include /Iheader /IC:\Users\VCL\Downloads\opengl\glew\include /I"C:\Users\VCL\Downloads\glm-0.9.5.3\glm" /IC:\Users\VCL\Downloads\opengl\glfw\include /I../ /Zi /nologo /W3 /WX- /sdl /O2 /Oi /GL /D WIN32 /D NDEBUG /D _CONSOLE /D _LIB /D _UNICODE /D UNICODE /Gm- /EHsc /MD /GS /Gy /fp:precise /Zc:wchar_t /Zc:forScope /Fo"X64\RELEASE\\" /Fd"X64\RELEASE\VC120.PDB" /Gd /TP C:\USERS\VCL\DOCUMENTS\VISUAL STUDIO 2013\PROJECTS\PTAM - SIFT DEPTHMAP\PTAM\SRC\RESULTMAP.CPP
^C:\USERS\VCL\DOCUMENTS\VISUAL STUDIO 2013\PROJECTS\PTAM - SIFT DEPTHMAP\PTAM\MAIN.CPP
/c /I"C:\Program Files\SoftKinetic\DepthSenseSDK\include" /IC:\Users\VCL\Downloads\opencv3.0rc1\opencv\build\include /Iheader /IC:\Users\VCL\Downloads\opengl\glew\include /I"C:\Users\VCL\Downloads\glm-0.9.5.3\glm" /IC:\Users\VCL\Downloads\opengl\glfw\include /I../ /Zi /nologo /W3 /WX- /sdl /O2 /Oi /GL /D WIN32 /D NDEBUG /D _CONSOLE /D _LIB /D _UNICODE /D UNICODE /Gm- /EHsc /MD /GS /Gy /fp:precise /Zc:wchar_t /Zc:forScope /Fo"X64\RELEASE\\" /Fd"X64\RELEASE\VC120.PDB" /Gd /TP C:\USERS\VCL\DOCUMENTS\VISUAL STUDIO 2013\PROJECTS\PTAM - SIFT DEPTHMAP\PTAM\MAIN.CPP
^C:\USERS\VCL\DOCUMENTS\VISUAL STUDIO 2013\PROJECTS\PTAM - SIFT DEPTHMAP\PTAM\SRC\KEYFRAME.CPP
/c /I"C:\Program Files\SoftKinetic\DepthSenseSDK\include" /IC:\Users\VCL\Downloads\opencv3.0rc1\opencv\build\include /Iheader /IC:\Users\VCL\Downloads\opengl\glew\include /I"C:\Users\VCL\Downloads\glm-0.9.5.3\glm" /IC:\Users\VCL\Downloads\opengl\glfw\include /I../ /Zi /nologo /W3 /WX- /sdl /O2 /Oi /GL /D WIN32 /D NDEBUG /D _CONSOLE /D _LIB /D _UNICODE /D UNICODE /Gm- /EHsc /MD /GS /Gy /fp:precise /Zc:wchar_t /Zc:forScope /Fo"X64\RELEASE\\" /Fd"X64\RELEASE\VC120.PDB" /Gd /TP C:\USERS\VCL\DOCUMENTS\VISUAL STUDIO 2013\PROJECTS\PTAM - SIFT DEPTHMAP\PTAM\SRC\KEYFRAME.CPP
^C:\USERS\VCL\DOCUMENTS\VISUAL STUDIO 2013\PROJECTS\PTAM - SIFT DEPTHMAP\PTAM\SRC\MAP.CPP
/c /I"C:\Program Files\SoftKinetic\DepthSenseSDK\include" /IC:\Users\VCL\Downloads\opencv3.0rc1\opencv\build\include /Iheader /IC:\Users\VCL\Downloads\opengl\glew\include /I"C:\Users\VCL\Downloads\glm-0.9.5.3\glm" /IC:\Users\VCL\Downloads\opengl\glfw\include /I../ /Zi /nologo /W3 /WX- /sdl /O2 /Oi /GL /D WIN32 /D NDEBUG /D _CONSOLE /D _LIB /D _UNICODE /D UNICODE /Gm- /EHsc /MD /GS /Gy /fp:precise /Zc:wchar_t /Zc:forScope /Fo"X64\RELEASE\\" /Fd"X64\RELEASE\VC120.PDB" /Gd /TP C:\USERS\VCL\DOCUMENTS\VISUAL STUDIO 2013\PROJECTS\PTAM - SIFT DEPTHMAP\PTAM\SRC\MAP.CPP
