^C:\USERS\VCL\DOCUMENTS\VISUAL STUDIO 2013\PROJECTS\PTAM\PTAM\STDAFX.CPP
C:\USERS\VCL\DOCUMENTS\VISUAL STUDIO 2013\PROJECTS\PTAM\PTAM\X64\RELEASE\PTAM.PCH
C:\USERS\VCL\DOCUMENTS\VISUAL STUDIO 2013\PROJECTS\PTAM\PTAM\X64\RELEASE\VC120.PDB
C:\USERS\VCL\DOCUMENTS\VISUAL STUDIO 2013\PROJECTS\PTAM\PTAM\X64\RELEASE\STDAFX.OBJ
^C:\USERS\VCL\DOCUMENTS\VISUAL STUDIO 2013\PROJECTS\PTAM\PTAM\COMMON\SHADER.CPP|C:\USERS\VCL\DOCUMENTS\VISUAL STUDIO 2013\PROJECTS\PTAM\PTAM\MAIN.CPP|C:\USERS\VCL\DOCUMENTS\VISUAL STUDIO 2013\PROJECTS\PTAM\PTAM\SRC\GLVIEW.CPP|C:\USERS\VCL\DOCUMENTS\VISUAL STUDIO 2013\PROJECTS\PTAM\PTAM\SRC\IMAGEDATA.CPP|C:\USERS\VCL\DOCUMENTS\VISUAL STUDIO 2013\PROJECTS\PTAM\PTAM\SRC\KEYFRAME.CPP|C:\USERS\VCL\DOCUMENTS\VISUAL STUDIO 2013\PROJECTS\PTAM\PTAM\SRC\MAP.CPP|C:\USERS\VCL\DOCUMENTS\VISUAL STUDIO 2013\PROJECTS\PTAM\PTAM\SRC\RESULTMAP.CPP
C:\USERS\VCL\DOCUMENTS\VISUAL STUDIO 2013\PROJECTS\PTAM\PTAM\X64\RELEASE\VC120.PDB
C:\USERS\VCL\DOCUMENTS\VISUAL STUDIO 2013\PROJECTS\PTAM\PTAM\X64\RELEASE\RESULTMAP.OBJ
C:\USERS\VCL\DOCUMENTS\VISUAL STUDIO 2013\PROJECTS\PTAM\PTAM\X64\RELEASE\MAP.OBJ
C:\USERS\VCL\DOCUMENTS\VISUAL STUDIO 2013\PROJECTS\PTAM\PTAM\X64\RELEASE\KEYFRAME.OBJ
C:\USERS\VCL\DOCUMENTS\VISUAL STUDIO 2013\PROJECTS\PTAM\PTAM\X64\RELEASE\IMAGEDATA.OBJ
C:\USERS\VCL\DOCUMENTS\VISUAL STUDIO 2013\PROJECTS\PTAM\PTAM\X64\RELEASE\GLVIEW.OBJ
C:\USERS\VCL\DOCUMENTS\VISUAL STUDIO 2013\PROJECTS\PTAM\PTAM\X64\RELEASE\MAIN.OBJ
C:\USERS\VCL\DOCUMENTS\VISUAL STUDIO 2013\PROJECTS\PTAM\PTAM\X64\RELEASE\SHADER.OBJ
^C:\USERS\VCL\DOCUMENTS\VISUAL STUDIO 2013\PROJECTS\PTAM\PTAM\COMMON\SHADER.CPP
C:\USERS\VCL\DOCUMENTS\VISUAL STUDIO 2013\PROJECTS\PTAM\PTAM\X64\RELEASE\VC120.PDB
^C:\USERS\VCL\DOCUMENTS\VISUAL STUDIO 2013\PROJECTS\PTAM\PTAM\MAIN.CPP|C:\USERS\VCL\DOCUMENTS\VISUAL STUDIO 2013\PROJECTS\PTAM\PTAM\SRC\IMAGEDATA.CPP|C:\USERS\VCL\DOCUMENTS\VISUAL STUDIO 2013\PROJECTS\PTAM\PTAM\SRC\KEYFRAME.CPP|C:\USERS\VCL\DOCUMENTS\VISUAL STUDIO 2013\PROJECTS\PTAM\PTAM\SRC\MAP.CPP|C:\USERS\VCL\DOCUMENTS\VISUAL STUDIO 2013\PROJECTS\PTAM\PTAM\SRC\RESULTMAP.CPP
C:\USERS\VCL\DOCUMENTS\VISUAL STUDIO 2013\PROJECTS\PTAM\PTAM\X64\RELEASE\VC120.PDB
C:\USERS\VCL\DOCUMENTS\VISUAL STUDIO 2013\PROJECTS\PTAM\PTAM\X64\RELEASE\RESULTMAP.OBJ
C:\USERS\VCL\DOCUMENTS\VISUAL STUDIO 2013\PROJECTS\PTAM\PTAM\X64\RELEASE\MAP.OBJ
C:\USERS\VCL\DOCUMENTS\VISUAL STUDIO 2013\PROJECTS\PTAM\PTAM\X64\RELEASE\KEYFRAME.OBJ
C:\USERS\VCL\DOCUMENTS\VISUAL STUDIO 2013\PROJECTS\PTAM\PTAM\X64\RELEASE\IMAGEDATA.OBJ
C:\USERS\VCL\DOCUMENTS\VISUAL STUDIO 2013\PROJECTS\PTAM\PTAM\X64\RELEASE\MAIN.OBJ
^C:\USERS\VCL\DOCUMENTS\VISUAL STUDIO 2013\PROJECTS\PTAM\PTAM\MAIN.CPP|C:\USERS\VCL\DOCUMENTS\VISUAL STUDIO 2013\PROJECTS\PTAM\PTAM\SRC\IMAGEDATA.CPP
C:\USERS\VCL\DOCUMENTS\VISUAL STUDIO 2013\PROJECTS\PTAM\PTAM\X64\RELEASE\VC120.PDB
C:\USERS\VCL\DOCUMENTS\VISUAL STUDIO 2013\PROJECTS\PTAM\PTAM\X64\RELEASE\IMAGEDATA.OBJ
C:\USERS\VCL\DOCUMENTS\VISUAL STUDIO 2013\PROJECTS\PTAM\PTAM\X64\RELEASE\MAIN.OBJ
^C:\USERS\VCL\DOCUMENTS\VISUAL STUDIO 2013\PROJECTS\PTAM\PTAM\SRC\GLVIEW.CPP|C:\USERS\VCL\DOCUMENTS\VISUAL STUDIO 2013\PROJECTS\PTAM\PTAM\SRC\KEYFRAME.CPP|C:\USERS\VCL\DOCUMENTS\VISUAL STUDIO 2013\PROJECTS\PTAM\PTAM\SRC\MAP.CPP
C:\USERS\VCL\DOCUMENTS\VISUAL STUDIO 2013\PROJECTS\PTAM\PTAM\X64\RELEASE\VC120.PDB
C:\USERS\VCL\DOCUMENTS\VISUAL STUDIO 2013\PROJECTS\PTAM\PTAM\X64\RELEASE\GLVIEW.OBJ
C:\USERS\VCL\DOCUMENTS\VISUAL STUDIO 2013\PROJECTS\PTAM\PTAM\X64\RELEASE\MAP.OBJ
C:\USERS\VCL\DOCUMENTS\VISUAL STUDIO 2013\PROJECTS\PTAM\PTAM\X64\RELEASE\KEYFRAME.OBJ
^C:\USERS\VCL\DOCUMENTS\VISUAL STUDIO 2013\PROJECTS\PTAM\PTAM\SRC\GLVIEW.CPP
C:\USERS\VCL\DOCUMENTS\VISUAL STUDIO 2013\PROJECTS\PTAM\PTAM\X64\RELEASE\VC120.PDB
C:\USERS\VCL\DOCUMENTS\VISUAL STUDIO 2013\PROJECTS\PTAM\PTAM\X64\RELEASE\GLVIEW.OBJ
^C:\USERS\VCL\DOCUMENTS\VISUAL STUDIO 2013\PROJECTS\PTAM\PTAM\MAIN.CPP|C:\USERS\VCL\DOCUMENTS\VISUAL STUDIO 2013\PROJECTS\PTAM\PTAM\SRC\MAP.CPP
C:\USERS\VCL\DOCUMENTS\VISUAL STUDIO 2013\PROJECTS\PTAM\PTAM\X64\RELEASE\VC120.PDB
C:\USERS\VCL\DOCUMENTS\VISUAL STUDIO 2013\PROJECTS\PTAM\PTAM\X64\RELEASE\MAP.OBJ
C:\USERS\VCL\DOCUMENTS\VISUAL STUDIO 2013\PROJECTS\PTAM\PTAM\X64\RELEASE\MAIN.OBJ
^C:\USERS\VCL\DOCUMENTS\VISUAL STUDIO 2013\PROJECTS\PTAM\PTAM\MAIN.CPP|C:\USERS\VCL\DOCUMENTS\VISUAL STUDIO 2013\PROJECTS\PTAM\PTAM\SRC\IMAGEDATA.CPP|C:\USERS\VCL\DOCUMENTS\VISUAL STUDIO 2013\PROJECTS\PTAM\PTAM\SRC\MAP.CPP
C:\USERS\VCL\DOCUMENTS\VISUAL STUDIO 2013\PROJECTS\PTAM\PTAM\X64\RELEASE\VC120.PDB
C:\USERS\VCL\DOCUMENTS\VISUAL STUDIO 2013\PROJECTS\PTAM\PTAM\X64\RELEASE\MAP.OBJ
C:\USERS\VCL\DOCUMENTS\VISUAL STUDIO 2013\PROJECTS\PTAM\PTAM\X64\RELEASE\IMAGEDATA.OBJ
C:\USERS\VCL\DOCUMENTS\VISUAL STUDIO 2013\PROJECTS\PTAM\PTAM\X64\RELEASE\MAIN.OBJ
^C:\USERS\VCL\DOCUMENTS\VISUAL STUDIO 2013\PROJECTS\PTAM\PTAM\SRC\IMAGEDATA.CPP|C:\USERS\VCL\DOCUMENTS\VISUAL STUDIO 2013\PROJECTS\PTAM\PTAM\SRC\MAP.CPP
C:\USERS\VCL\DOCUMENTS\VISUAL STUDIO 2013\PROJECTS\PTAM\PTAM\X64\RELEASE\VC120.PDB
C:\USERS\VCL\DOCUMENTS\VISUAL STUDIO 2013\PROJECTS\PTAM\PTAM\X64\RELEASE\MAP.OBJ
^C:\USERS\VCL\DOCUMENTS\VISUAL STUDIO 2013\PROJECTS\PTAM\PTAM\MAIN.CPP|C:\USERS\VCL\DOCUMENTS\VISUAL STUDIO 2013\PROJECTS\PTAM\PTAM\SRC\IMAGEDATA.CPP|C:\USERS\VCL\DOCUMENTS\VISUAL STUDIO 2013\PROJECTS\PTAM\PTAM\SRC\MAP.CPP|C:\USERS\VCL\DOCUMENTS\VISUAL STUDIO 2013\PROJECTS\PTAM\PTAM\SRC\RESULTMAP.CPP
C:\USERS\VCL\DOCUMENTS\VISUAL STUDIO 2013\PROJECTS\PTAM\PTAM\X64\RELEASE\VC120.PDB
C:\USERS\VCL\DOCUMENTS\VISUAL STUDIO 2013\PROJECTS\PTAM\PTAM\X64\RELEASE\RESULTMAP.OBJ
C:\USERS\VCL\DOCUMENTS\VISUAL STUDIO 2013\PROJECTS\PTAM\PTAM\X64\RELEASE\MAP.OBJ
C:\USERS\VCL\DOCUMENTS\VISUAL STUDIO 2013\PROJECTS\PTAM\PTAM\X64\RELEASE\IMAGEDATA.OBJ
C:\USERS\VCL\DOCUMENTS\VISUAL STUDIO 2013\PROJECTS\PTAM\PTAM\X64\RELEASE\MAIN.OBJ
^C:\USERS\VCL\DOCUMENTS\VISUAL STUDIO 2013\PROJECTS\PTAM\PTAM\SRC\MAP.CPP|C:\USERS\VCL\DOCUMENTS\VISUAL STUDIO 2013\PROJECTS\PTAM\PTAM\SRC\RESULTMAP.CPP
C:\USERS\VCL\DOCUMENTS\VISUAL STUDIO 2013\PROJECTS\PTAM\PTAM\X64\RELEASE\VC120.PDB
C:\USERS\VCL\DOCUMENTS\VISUAL STUDIO 2013\PROJECTS\PTAM\PTAM\X64\RELEASE\RESULTMAP.OBJ
C:\USERS\VCL\DOCUMENTS\VISUAL STUDIO 2013\PROJECTS\PTAM\PTAM\X64\RELEASE\MAP.OBJ
^C:\USERS\VCL\DOCUMENTS\VISUAL STUDIO 2013\PROJECTS\PTAM\PTAM\SRC\KEYFRAME.CPP|C:\USERS\VCL\DOCUMENTS\VISUAL STUDIO 2013\PROJECTS\PTAM\PTAM\SRC\MAP.CPP
C:\USERS\VCL\DOCUMENTS\VISUAL STUDIO 2013\PROJECTS\PTAM\PTAM\X64\RELEASE\VC120.PDB
C:\USERS\VCL\DOCUMENTS\VISUAL STUDIO 2013\PROJECTS\PTAM\PTAM\X64\RELEASE\MAP.OBJ
C:\USERS\VCL\DOCUMENTS\VISUAL STUDIO 2013\PROJECTS\PTAM\PTAM\X64\RELEASE\KEYFRAME.OBJ
^C:\USERS\VCL\DOCUMENTS\VISUAL STUDIO 2013\PROJECTS\PTAM\PTAM\SRC\KEYFRAME.CPP|C:\USERS\VCL\DOCUMENTS\VISUAL STUDIO 2013\PROJECTS\PTAM\PTAM\SRC\RESULTMAP.CPP
C:\USERS\VCL\DOCUMENTS\VISUAL STUDIO 2013\PROJECTS\PTAM\PTAM\X64\RELEASE\VC120.PDB
C:\USERS\VCL\DOCUMENTS\VISUAL STUDIO 2013\PROJECTS\PTAM\PTAM\X64\RELEASE\RESULTMAP.OBJ
C:\USERS\VCL\DOCUMENTS\VISUAL STUDIO 2013\PROJECTS\PTAM\PTAM\X64\RELEASE\KEYFRAME.OBJ
^C:\USERS\VCL\DOCUMENTS\VISUAL STUDIO 2013\PROJECTS\PTAM\PTAM\SRC\CVSBA.CPP|C:\USERS\VCL\DOCUMENTS\VISUAL STUDIO 2013\PROJECTS\PTAM\PTAM\SRC\KEYFRAME.CPP
C:\USERS\VCL\DOCUMENTS\VISUAL STUDIO 2013\PROJECTS\PTAM\PTAM\X64\RELEASE\VC120.PDB
C:\USERS\VCL\DOCUMENTS\VISUAL STUDIO 2013\PROJECTS\PTAM\PTAM\X64\RELEASE\KEYFRAME.OBJ
C:\USERS\VCL\DOCUMENTS\VISUAL STUDIO 2013\PROJECTS\PTAM\PTAM\X64\RELEASE\CVSBA.OBJ
^C:\USERS\VCL\DOCUMENTS\VISUAL STUDIO 2013\PROJECTS\PTAM\PTAM\SRC\CVSBA.CPP
C:\USERS\VCL\DOCUMENTS\VISUAL STUDIO 2013\PROJECTS\PTAM\PTAM\X64\RELEASE\VC120.PDB
^C:\USERS\VCL\DOCUMENTS\VISUAL STUDIO 2013\PROJECTS\PTAM\PTAM\MAIN.CPP|C:\USERS\VCL\DOCUMENTS\VISUAL STUDIO 2013\PROJECTS\PTAM\PTAM\SRC\KEYFRAME.CPP|C:\USERS\VCL\DOCUMENTS\VISUAL STUDIO 2013\PROJECTS\PTAM\PTAM\SRC\MAP.CPP
C:\USERS\VCL\DOCUMENTS\VISUAL STUDIO 2013\PROJECTS\PTAM\PTAM\X64\RELEASE\VC120.PDB
C:\USERS\VCL\DOCUMENTS\VISUAL STUDIO 2013\PROJECTS\PTAM\PTAM\X64\RELEASE\MAP.OBJ
C:\USERS\VCL\DOCUMENTS\VISUAL STUDIO 2013\PROJECTS\PTAM\PTAM\X64\RELEASE\KEYFRAME.OBJ
C:\USERS\VCL\DOCUMENTS\VISUAL STUDIO 2013\PROJECTS\PTAM\PTAM\X64\RELEASE\MAIN.OBJ
^C:\USERS\VCL\DOCUMENTS\VISUAL STUDIO 2013\PROJECTS\PTAM\PTAM\SRC\KEYFRAME.CPP
C:\USERS\VCL\DOCUMENTS\VISUAL STUDIO 2013\PROJECTS\PTAM\PTAM\X64\RELEASE\VC120.PDB
^C:\USERS\VCL\DOCUMENTS\VISUAL STUDIO 2013\PROJECTS\PTAM\PTAM\MAIN.CPP|C:\USERS\VCL\DOCUMENTS\VISUAL STUDIO 2013\PROJECTS\PTAM\PTAM\SRC\MAP.CPP|C:\USERS\VCL\DOCUMENTS\VISUAL STUDIO 2013\PROJECTS\PTAM\PTAM\SRC\RESULTMAP.CPP
C:\USERS\VCL\DOCUMENTS\VISUAL STUDIO 2013\PROJECTS\PTAM\PTAM\X64\RELEASE\VC120.PDB
C:\USERS\VCL\DOCUMENTS\VISUAL STUDIO 2013\PROJECTS\PTAM\PTAM\X64\RELEASE\RESULTMAP.OBJ
C:\USERS\VCL\DOCUMENTS\VISUAL STUDIO 2013\PROJECTS\PTAM\PTAM\X64\RELEASE\MAP.OBJ
C:\USERS\VCL\DOCUMENTS\VISUAL STUDIO 2013\PROJECTS\PTAM\PTAM\X64\RELEASE\MAIN.OBJ
^C:\USERS\VCL\DOCUMENTS\VISUAL STUDIO 2013\PROJECTS\PTAM\PTAM\SRC\RESULTMAP.CPP
C:\USERS\VCL\DOCUMENTS\VISUAL STUDIO 2013\PROJECTS\PTAM\PTAM\X64\RELEASE\VC120.PDB
C:\USERS\VCL\DOCUMENTS\VISUAL STUDIO 2013\PROJECTS\PTAM\PTAM\X64\RELEASE\RESULTMAP.OBJ
^C:\USERS\VCL\DOCUMENTS\VISUAL STUDIO 2013\PROJECTS\PTAM\PTAM\SRC\MAP.CPP
C:\USERS\VCL\DOCUMENTS\VISUAL STUDIO 2013\PROJECTS\PTAM\PTAM\X64\RELEASE\VC120.PDB
C:\USERS\VCL\DOCUMENTS\VISUAL STUDIO 2013\PROJECTS\PTAM\PTAM\X64\RELEASE\MAP.OBJ
^C:\USERS\VCL\DOCUMENTS\VISUAL STUDIO 2013\PROJECTS\PTAM\PTAM\MAIN.CPP
C:\USERS\VCL\DOCUMENTS\VISUAL STUDIO 2013\PROJECTS\PTAM\PTAM\X64\RELEASE\VC120.PDB
C:\USERS\VCL\DOCUMENTS\VISUAL STUDIO 2013\PROJECTS\PTAM\PTAM\X64\RELEASE\MAIN.OBJ
^C:\USERS\VCL\DOCUMENTS\VISUAL STUDIO 2013\PROJECTS\PTAM\PTAM\SRC\IMAGEDATA.CPP
C:\USERS\VCL\DOCUMENTS\VISUAL STUDIO 2013\PROJECTS\PTAM\PTAM\X64\RELEASE\VC120.PDB
C:\USERS\VCL\DOCUMENTS\VISUAL STUDIO 2013\PROJECTS\PTAM\PTAM\X64\RELEASE\IMAGEDATA.OBJ
^C:\USERS\VCL\DOCUMENTS\VISUAL STUDIO 2013\PROJECTS\PTAM - SIFT\PTAM\STDAFX.CPP
C:\USERS\VCL\DOCUMENTS\VISUAL STUDIO 2013\PROJECTS\PTAM - SIFT\PTAM\X64\RELEASE\PTAM.PCH
C:\USERS\VCL\DOCUMENTS\VISUAL STUDIO 2013\PROJECTS\PTAM - SIFT\PTAM\X64\RELEASE\VC120.PDB
C:\USERS\VCL\DOCUMENTS\VISUAL STUDIO 2013\PROJECTS\PTAM - SIFT\PTAM\X64\RELEASE\STDAFX.OBJ
^C:\USERS\VCL\DOCUMENTS\VISUAL STUDIO 2013\PROJECTS\PTAM - SIFT\PTAM\COMMON\SHADER.CPP|C:\USERS\VCL\DOCUMENTS\VISUAL STUDIO 2013\PROJECTS\PTAM - SIFT\PTAM\MAIN.CPP|C:\USERS\VCL\DOCUMENTS\VISUAL STUDIO 2013\PROJECTS\PTAM - SIFT\PTAM\SRC\GLVIEW.CPP|C:\USERS\VCL\DOCUMENTS\VISUAL STUDIO 2013\PROJECTS\PTAM - SIFT\PTAM\SRC\IMAGEDATA.CPP|C:\USERS\VCL\DOCUMENTS\VISUAL STUDIO 2013\PROJECTS\PTAM - SIFT\PTAM\SRC\KEYFRAME.CPP|C:\USERS\VCL\DOCUMENTS\VISUAL STUDIO 2013\PROJECTS\PTAM - SIFT\PTAM\SRC\MAP.CPP|C:\USERS\VCL\DOCUMENTS\VISUAL STUDIO 2013\PROJECTS\PTAM - SIFT\PTAM\SRC\RESULTMAP.CPP
C:\USERS\VCL\DOCUMENTS\VISUAL STUDIO 2013\PROJECTS\PTAM - SIFT\PTAM\X64\RELEASE\VC120.PDB
C:\USERS\VCL\DOCUMENTS\VISUAL STUDIO 2013\PROJECTS\PTAM - SIFT\PTAM\X64\RELEASE\RESULTMAP.OBJ
C:\USERS\VCL\DOCUMENTS\VISUAL STUDIO 2013\PROJECTS\PTAM - SIFT\PTAM\X64\RELEASE\MAP.OBJ
C:\USERS\VCL\DOCUMENTS\VISUAL STUDIO 2013\PROJECTS\PTAM - SIFT\PTAM\X64\RELEASE\KEYFRAME.OBJ
C:\USERS\VCL\DOCUMENTS\VISUAL STUDIO 2013\PROJECTS\PTAM - SIFT\PTAM\X64\RELEASE\IMAGEDATA.OBJ
C:\USERS\VCL\DOCUMENTS\VISUAL STUDIO 2013\PROJECTS\PTAM - SIFT\PTAM\X64\RELEASE\GLVIEW.OBJ
C:\USERS\VCL\DOCUMENTS\VISUAL STUDIO 2013\PROJECTS\PTAM - SIFT\PTAM\X64\RELEASE\MAIN.OBJ
C:\USERS\VCL\DOCUMENTS\VISUAL STUDIO 2013\PROJECTS\PTAM - SIFT\PTAM\X64\RELEASE\SHADER.OBJ
^C:\USERS\VCL\DOCUMENTS\VISUAL STUDIO 2013\PROJECTS\PTAM - SIFT\PTAM\COMMON\SHADER.CPP
C:\USERS\VCL\DOCUMENTS\VISUAL STUDIO 2013\PROJECTS\PTAM - SIFT\PTAM\X64\RELEASE\VC120.PDB
^C:\USERS\VCL\DOCUMENTS\VISUAL STUDIO 2013\PROJECTS\PTAM - SIFT\PTAM\MAIN.CPP|C:\USERS\VCL\DOCUMENTS\VISUAL STUDIO 2013\PROJECTS\PTAM - SIFT\PTAM\SRC\IMAGEDATA.CPP|C:\USERS\VCL\DOCUMENTS\VISUAL STUDIO 2013\PROJECTS\PTAM - SIFT\PTAM\SRC\MAP.CPP|C:\USERS\VCL\DOCUMENTS\VISUAL STUDIO 2013\PROJECTS\PTAM - SIFT\PTAM\SRC\RESULTMAP.CPP
C:\USERS\VCL\DOCUMENTS\VISUAL STUDIO 2013\PROJECTS\PTAM - SIFT\PTAM\X64\RELEASE\VC120.PDB
C:\USERS\VCL\DOCUMENTS\VISUAL STUDIO 2013\PROJECTS\PTAM - SIFT\PTAM\X64\RELEASE\RESULTMAP.OBJ
C:\USERS\VCL\DOCUMENTS\VISUAL STUDIO 2013\PROJECTS\PTAM - SIFT\PTAM\X64\RELEASE\MAP.OBJ
C:\USERS\VCL\DOCUMENTS\VISUAL STUDIO 2013\PROJECTS\PTAM - SIFT\PTAM\X64\RELEASE\IMAGEDATA.OBJ
C:\USERS\VCL\DOCUMENTS\VISUAL STUDIO 2013\PROJECTS\PTAM - SIFT\PTAM\X64\RELEASE\MAIN.OBJ
^C:\USERS\VCL\DOCUMENTS\VISUAL STUDIO 2013\PROJECTS\PTAM - SIFT\PTAM\SRC\IMAGEDATA.CPP|C:\USERS\VCL\DOCUMENTS\VISUAL STUDIO 2013\PROJECTS\PTAM - SIFT\PTAM\SRC\MAP.CPP|C:\USERS\VCL\DOCUMENTS\VISUAL STUDIO 2013\PROJECTS\PTAM - SIFT\PTAM\SRC\RESULTMAP.CPP
C:\USERS\VCL\DOCUMENTS\VISUAL STUDIO 2013\PROJECTS\PTAM - SIFT\PTAM\X64\RELEASE\VC120.PDB
C:\USERS\VCL\DOCUMENTS\VISUAL STUDIO 2013\PROJECTS\PTAM - SIFT\PTAM\X64\RELEASE\RESULTMAP.OBJ
C:\USERS\VCL\DOCUMENTS\VISUAL STUDIO 2013\PROJECTS\PTAM - SIFT\PTAM\X64\RELEASE\MAP.OBJ
C:\USERS\VCL\DOCUMENTS\VISUAL STUDIO 2013\PROJECTS\PTAM - SIFT\PTAM\X64\RELEASE\IMAGEDATA.OBJ
^C:\USERS\VCL\DOCUMENTS\VISUAL STUDIO 2013\PROJECTS\PTAM - SIFT\PTAM\MAIN.CPP|C:\USERS\VCL\DOCUMENTS\VISUAL STUDIO 2013\PROJECTS\PTAM - SIFT\PTAM\SRC\GLVIEW.CPP|C:\USERS\VCL\DOCUMENTS\VISUAL STUDIO 2013\PROJECTS\PTAM - SIFT\PTAM\SRC\IMAGEDATA.CPP|C:\USERS\VCL\DOCUMENTS\VISUAL STUDIO 2013\PROJECTS\PTAM - SIFT\PTAM\SRC\KEYFRAME.CPP|C:\USERS\VCL\DOCUMENTS\VISUAL STUDIO 2013\PROJECTS\PTAM - SIFT\PTAM\SRC\MAP.CPP|C:\USERS\VCL\DOCUMENTS\VISUAL STUDIO 2013\PROJECTS\PTAM - SIFT\PTAM\SRC\RESULTMAP.CPP
C:\USERS\VCL\DOCUMENTS\VISUAL STUDIO 2013\PROJECTS\PTAM - SIFT\PTAM\X64\RELEASE\VC120.PDB
C:\USERS\VCL\DOCUMENTS\VISUAL STUDIO 2013\PROJECTS\PTAM - SIFT\PTAM\X64\RELEASE\GLVIEW.OBJ
C:\USERS\VCL\DOCUMENTS\VISUAL STUDIO 2013\PROJECTS\PTAM - SIFT\PTAM\X64\RELEASE\RESULTMAP.OBJ
C:\USERS\VCL\DOCUMENTS\VISUAL STUDIO 2013\PROJECTS\PTAM - SIFT\PTAM\X64\RELEASE\MAP.OBJ
C:\USERS\VCL\DOCUMENTS\VISUAL STUDIO 2013\PROJECTS\PTAM - SIFT\PTAM\X64\RELEASE\KEYFRAME.OBJ
C:\USERS\VCL\DOCUMENTS\VISUAL STUDIO 2013\PROJECTS\PTAM - SIFT\PTAM\X64\RELEASE\IMAGEDATA.OBJ
C:\USERS\VCL\DOCUMENTS\VISUAL STUDIO 2013\PROJECTS\PTAM - SIFT\PTAM\X64\RELEASE\MAIN.OBJ
^C:\USERS\VCL\DOCUMENTS\VISUAL STUDIO 2013\PROJECTS\PTAM - SIFT\PTAM\SRC\RESULTMAP.CPP
C:\USERS\VCL\DOCUMENTS\VISUAL STUDIO 2013\PROJECTS\PTAM - SIFT\PTAM\X64\RELEASE\VC120.PDB
^C:\USERS\VCL\DOCUMENTS\VISUAL STUDIO 2013\PROJECTS\PTAM - SIFT\PTAM\SRC\GLVIEW.CPP
C:\USERS\VCL\DOCUMENTS\VISUAL STUDIO 2013\PROJECTS\PTAM - SIFT\PTAM\X64\RELEASE\VC120.PDB
^C:\USERS\VCL\DOCUMENTS\VISUAL STUDIO 2013\PROJECTS\PTAM - SIFT\PTAM\MAIN.CPP|C:\USERS\VCL\DOCUMENTS\VISUAL STUDIO 2013\PROJECTS\PTAM - SIFT\PTAM\SRC\MAP.CPP
C:\USERS\VCL\DOCUMENTS\VISUAL STUDIO 2013\PROJECTS\PTAM - SIFT\PTAM\X64\RELEASE\VC120.PDB
C:\USERS\VCL\DOCUMENTS\VISUAL STUDIO 2013\PROJECTS\PTAM - SIFT\PTAM\X64\RELEASE\MAP.OBJ
C:\USERS\VCL\DOCUMENTS\VISUAL STUDIO 2013\PROJECTS\PTAM - SIFT\PTAM\X64\RELEASE\MAIN.OBJ
^C:\USERS\VCL\DOCUMENTS\VISUAL STUDIO 2013\PROJECTS\PTAM - SIFT\PTAM\MAIN.CPP|C:\USERS\VCL\DOCUMENTS\VISUAL STUDIO 2013\PROJECTS\PTAM - SIFT\PTAM\SRC\IMAGEDATA.CPP|C:\USERS\VCL\DOCUMENTS\VISUAL STUDIO 2013\PROJECTS\PTAM - SIFT\PTAM\SRC\MAP.CPP
C:\USERS\VCL\DOCUMENTS\VISUAL STUDIO 2013\PROJECTS\PTAM - SIFT\PTAM\X64\RELEASE\VC120.PDB
C:\USERS\VCL\DOCUMENTS\VISUAL STUDIO 2013\PROJECTS\PTAM - SIFT\PTAM\X64\RELEASE\MAP.OBJ
C:\USERS\VCL\DOCUMENTS\VISUAL STUDIO 2013\PROJECTS\PTAM - SIFT\PTAM\X64\RELEASE\IMAGEDATA.OBJ
C:\USERS\VCL\DOCUMENTS\VISUAL STUDIO 2013\PROJECTS\PTAM - SIFT\PTAM\X64\RELEASE\MAIN.OBJ
^C:\USERS\VCL\DOCUMENTS\VISUAL STUDIO 2013\PROJECTS\PTAM - SIFT\PTAM\SRC\IMAGEDATA.CPP
C:\USERS\VCL\DOCUMENTS\VISUAL STUDIO 2013\PROJECTS\PTAM - SIFT\PTAM\X64\RELEASE\VC120.PDB
C:\USERS\VCL\DOCUMENTS\VISUAL STUDIO 2013\PROJECTS\PTAM - SIFT\PTAM\X64\RELEASE\IMAGEDATA.OBJ
^C:\USERS\VCL\DOCUMENTS\VISUAL STUDIO 2013\PROJECTS\PTAM - SIFT\PTAM\SRC\MAP.CPP
C:\USERS\VCL\DOCUMENTS\VISUAL STUDIO 2013\PROJECTS\PTAM - SIFT\PTAM\X64\RELEASE\VC120.PDB
C:\USERS\VCL\DOCUMENTS\VISUAL STUDIO 2013\PROJECTS\PTAM - SIFT\PTAM\X64\RELEASE\MAP.OBJ
^C:\USERS\VCL\DOCUMENTS\VISUAL STUDIO 2013\PROJECTS\PTAM - SIFT\PTAM\SRC\KEYFRAME.CPP
C:\USERS\VCL\DOCUMENTS\VISUAL STUDIO 2013\PROJECTS\PTAM - SIFT\PTAM\X64\RELEASE\VC120.PDB
C:\USERS\VCL\DOCUMENTS\VISUAL STUDIO 2013\PROJECTS\PTAM - SIFT\PTAM\X64\RELEASE\KEYFRAME.OBJ
^C:\USERS\VCL\DOCUMENTS\VISUAL STUDIO 2013\PROJECTS\PTAM - SIFT\PTAM\MAIN.CPP
C:\USERS\VCL\DOCUMENTS\VISUAL STUDIO 2013\PROJECTS\PTAM - SIFT\PTAM\X64\RELEASE\VC120.PDB
C:\USERS\VCL\DOCUMENTS\VISUAL STUDIO 2013\PROJECTS\PTAM - SIFT\PTAM\X64\RELEASE\MAIN.OBJ
^C:\USERS\VCL\DOCUMENTS\VISUAL STUDIO 2013\PROJECTS\PTAM - SIFT DEPTHMAP\PTAM\STDAFX.CPP
C:\USERS\VCL\DOCUMENTS\VISUAL STUDIO 2013\PROJECTS\PTAM - SIFT DEPTHMAP\PTAM\X64\RELEASE\PTAM.PCH
C:\USERS\VCL\DOCUMENTS\VISUAL STUDIO 2013\PROJECTS\PTAM - SIFT DEPTHMAP\PTAM\X64\RELEASE\VC120.PDB
C:\USERS\VCL\DOCUMENTS\VISUAL STUDIO 2013\PROJECTS\PTAM - SIFT DEPTHMAP\PTAM\X64\RELEASE\STDAFX.OBJ
^C:\USERS\VCL\DOCUMENTS\VISUAL STUDIO 2013\PROJECTS\PTAM - SIFT DEPTHMAP\PTAM\COMMON\SHADER.CPP|C:\USERS\VCL\DOCUMENTS\VISUAL STUDIO 2013\PROJECTS\PTAM - SIFT DEPTHMAP\PTAM\MAIN.CPP|C:\USERS\VCL\DOCUMENTS\VISUAL STUDIO 2013\PROJECTS\PTAM - SIFT DEPTHMAP\PTAM\SRC\GLVIEW.CPP|C:\USERS\VCL\DOCUMENTS\VISUAL STUDIO 2013\PROJECTS\PTAM - SIFT DEPTHMAP\PTAM\SRC\IMAGEDATA.CPP|C:\USERS\VCL\DOCUMENTS\VISUAL STUDIO 2013\PROJECTS\PTAM - SIFT DEPTHMAP\PTAM\SRC\KEYFRAME.CPP|C:\USERS\VCL\DOCUMENTS\VISUAL STUDIO 2013\PROJECTS\PTAM - SIFT DEPTHMAP\PTAM\SRC\MAP.CPP|C:\USERS\VCL\DOCUMENTS\VISUAL STUDIO 2013\PROJECTS\PTAM - SIFT DEPTHMAP\PTAM\SRC\RESULTMAP.CPP
C:\USERS\VCL\DOCUMENTS\VISUAL STUDIO 2013\PROJECTS\PTAM - SIFT DEPTHMAP\PTAM\X64\RELEASE\VC120.PDB
C:\USERS\VCL\DOCUMENTS\VISUAL STUDIO 2013\PROJECTS\PTAM - SIFT DEPTHMAP\PTAM\X64\RELEASE\RESULTMAP.OBJ
C:\USERS\VCL\DOCUMENTS\VISUAL STUDIO 2013\PROJECTS\PTAM - SIFT DEPTHMAP\PTAM\X64\RELEASE\MAP.OBJ
C:\USERS\VCL\DOCUMENTS\VISUAL STUDIO 2013\PROJECTS\PTAM - SIFT DEPTHMAP\PTAM\X64\RELEASE\KEYFRAME.OBJ
C:\USERS\VCL\DOCUMENTS\VISUAL STUDIO 2013\PROJECTS\PTAM - SIFT DEPTHMAP\PTAM\X64\RELEASE\IMAGEDATA.OBJ
C:\USERS\VCL\DOCUMENTS\VISUAL STUDIO 2013\PROJECTS\PTAM - SIFT DEPTHMAP\PTAM\X64\RELEASE\GLVIEW.OBJ
C:\USERS\VCL\DOCUMENTS\VISUAL STUDIO 2013\PROJECTS\PTAM - SIFT DEPTHMAP\PTAM\X64\RELEASE\MAIN.OBJ
C:\USERS\VCL\DOCUMENTS\VISUAL STUDIO 2013\PROJECTS\PTAM - SIFT DEPTHMAP\PTAM\X64\RELEASE\SHADER.OBJ
^C:\USERS\VCL\DOCUMENTS\VISUAL STUDIO 2013\PROJECTS\PTAM - SIFT DEPTHMAP\PTAM\COMMON\SHADER.CPP
C:\USERS\VCL\DOCUMENTS\VISUAL STUDIO 2013\PROJECTS\PTAM - SIFT DEPTHMAP\PTAM\X64\RELEASE\VC120.PDB
^C:\USERS\VCL\DOCUMENTS\VISUAL STUDIO 2013\PROJECTS\PTAM - SIFT DEPTHMAP\PTAM\MAIN.CPP|C:\USERS\VCL\DOCUMENTS\VISUAL STUDIO 2013\PROJECTS\PTAM - SIFT DEPTHMAP\PTAM\SRC\IMAGEDATA.CPP
C:\USERS\VCL\DOCUMENTS\VISUAL STUDIO 2013\PROJECTS\PTAM - SIFT DEPTHMAP\PTAM\X64\RELEASE\VC120.PDB
C:\USERS\VCL\DOCUMENTS\VISUAL STUDIO 2013\PROJECTS\PTAM - SIFT DEPTHMAP\PTAM\X64\RELEASE\IMAGEDATA.OBJ
C:\USERS\VCL\DOCUMENTS\VISUAL STUDIO 2013\PROJECTS\PTAM - SIFT DEPTHMAP\PTAM\X64\RELEASE\MAIN.OBJ
^C:\USERS\VCL\DOCUMENTS\VISUAL STUDIO 2013\PROJECTS\PTAM - SIFT DEPTHMAP\PTAM\MAIN.CPP|C:\USERS\VCL\DOCUMENTS\VISUAL STUDIO 2013\PROJECTS\PTAM - SIFT DEPTHMAP\PTAM\SRC\GLVIEW.CPP
C:\USERS\VCL\DOCUMENTS\VISUAL STUDIO 2013\PROJECTS\PTAM - SIFT DEPTHMAP\PTAM\X64\RELEASE\VC120.PDB
C:\USERS\VCL\DOCUMENTS\VISUAL STUDIO 2013\PROJECTS\PTAM - SIFT DEPTHMAP\PTAM\X64\RELEASE\GLVIEW.OBJ
C:\USERS\VCL\DOCUMENTS\VISUAL STUDIO 2013\PROJECTS\PTAM - SIFT DEPTHMAP\PTAM\X64\RELEASE\MAIN.OBJ
^C:\USERS\VCL\DOCUMENTS\VISUAL STUDIO 2013\PROJECTS\PTAM - SIFT DEPTHMAP\PTAM\MAIN.CPP|C:\USERS\VCL\DOCUMENTS\VISUAL STUDIO 2013\PROJECTS\PTAM - SIFT DEPTHMAP\PTAM\SRC\IMAGEDATA.CPP|C:\USERS\VCL\DOCUMENTS\VISUAL STUDIO 2013\PROJECTS\PTAM - SIFT DEPTHMAP\PTAM\SRC\MAP.CPP
C:\USERS\VCL\DOCUMENTS\VISUAL STUDIO 2013\PROJECTS\PTAM - SIFT DEPTHMAP\PTAM\X64\RELEASE\VC120.PDB
C:\USERS\VCL\DOCUMENTS\VISUAL STUDIO 2013\PROJECTS\PTAM - SIFT DEPTHMAP\PTAM\X64\RELEASE\MAP.OBJ
C:\USERS\VCL\DOCUMENTS\VISUAL STUDIO 2013\PROJECTS\PTAM - SIFT DEPTHMAP\PTAM\X64\RELEASE\IMAGEDATA.OBJ
C:\USERS\VCL\DOCUMENTS\VISUAL STUDIO 2013\PROJECTS\PTAM - SIFT DEPTHMAP\PTAM\X64\RELEASE\MAIN.OBJ
^C:\USERS\VCL\DOCUMENTS\VISUAL STUDIO 2013\PROJECTS\PTAM - SIFT DEPTHMAP\PTAM\MAIN.CPP|C:\USERS\VCL\DOCUMENTS\VISUAL STUDIO 2013\PROJECTS\PTAM - SIFT DEPTHMAP\PTAM\SRC\GLVIEW.CPP|C:\USERS\VCL\DOCUMENTS\VISUAL STUDIO 2013\PROJECTS\PTAM - SIFT DEPTHMAP\PTAM\SRC\IMAGEDATA.CPP|C:\USERS\VCL\DOCUMENTS\VISUAL STUDIO 2013\PROJECTS\PTAM - SIFT DEPTHMAP\PTAM\SRC\KEYFRAME.CPP|C:\USERS\VCL\DOCUMENTS\VISUAL STUDIO 2013\PROJECTS\PTAM - SIFT DEPTHMAP\PTAM\SRC\MAP.CPP|C:\USERS\VCL\DOCUMENTS\VISUAL STUDIO 2013\PROJECTS\PTAM - SIFT DEPTHMAP\PTAM\SRC\RESULTMAP.CPP
C:\USERS\VCL\DOCUMENTS\VISUAL STUDIO 2013\PROJECTS\PTAM - SIFT DEPTHMAP\PTAM\X64\RELEASE\VC120.PDB
C:\USERS\VCL\DOCUMENTS\VISUAL STUDIO 2013\PROJECTS\PTAM - SIFT DEPTHMAP\PTAM\X64\RELEASE\GLVIEW.OBJ
C:\USERS\VCL\DOCUMENTS\VISUAL STUDIO 2013\PROJECTS\PTAM - SIFT DEPTHMAP\PTAM\X64\RELEASE\RESULTMAP.OBJ
C:\USERS\VCL\DOCUMENTS\VISUAL STUDIO 2013\PROJECTS\PTAM - SIFT DEPTHMAP\PTAM\X64\RELEASE\MAP.OBJ
C:\USERS\VCL\DOCUMENTS\VISUAL STUDIO 2013\PROJECTS\PTAM - SIFT DEPTHMAP\PTAM\X64\RELEASE\KEYFRAME.OBJ
C:\USERS\VCL\DOCUMENTS\VISUAL STUDIO 2013\PROJECTS\PTAM - SIFT DEPTHMAP\PTAM\X64\RELEASE\IMAGEDATA.OBJ
C:\USERS\VCL\DOCUMENTS\VISUAL STUDIO 2013\PROJECTS\PTAM - SIFT DEPTHMAP\PTAM\X64\RELEASE\MAIN.OBJ
^C:\USERS\VCL\DOCUMENTS\VISUAL STUDIO 2013\PROJECTS\PTAM - SIFT DEPTHMAP\PTAM\SRC\IMAGEDATA.CPP
C:\USERS\VCL\DOCUMENTS\VISUAL STUDIO 2013\PROJECTS\PTAM - SIFT DEPTHMAP\PTAM\X64\RELEASE\VC120.PDB
^C:\USERS\VCL\DOCUMENTS\VISUAL STUDIO 2013\PROJECTS\PTAM - SIFT DEPTHMAP\PTAM\SRC\GLVIEW.CPP
C:\USERS\VCL\DOCUMENTS\VISUAL STUDIO 2013\PROJECTS\PTAM - SIFT DEPTHMAP\PTAM\X64\RELEASE\VC120.PDB
^C:\USERS\VCL\DOCUMENTS\VISUAL STUDIO 2013\PROJECTS\PTAM - SIFT DEPTHMAP\PTAM\SRC\RESULTMAP.CPP
C:\USERS\VCL\DOCUMENTS\VISUAL STUDIO 2013\PROJECTS\PTAM - SIFT DEPTHMAP\PTAM\X64\RELEASE\VC120.PDB
C:\USERS\VCL\DOCUMENTS\VISUAL STUDIO 2013\PROJECTS\PTAM - SIFT DEPTHMAP\PTAM\X64\RELEASE\RESULTMAP.OBJ
^C:\USERS\VCL\DOCUMENTS\VISUAL STUDIO 2013\PROJECTS\PTAM - SIFT DEPTHMAP\PTAM\MAIN.CPP
C:\USERS\VCL\DOCUMENTS\VISUAL STUDIO 2013\PROJECTS\PTAM - SIFT DEPTHMAP\PTAM\X64\RELEASE\VC120.PDB
C:\USERS\VCL\DOCUMENTS\VISUAL STUDIO 2013\PROJECTS\PTAM - SIFT DEPTHMAP\PTAM\X64\RELEASE\MAIN.OBJ
^C:\USERS\VCL\DOCUMENTS\VISUAL STUDIO 2013\PROJECTS\PTAM - SIFT DEPTHMAP\PTAM\SRC\KEYFRAME.CPP
C:\USERS\VCL\DOCUMENTS\VISUAL STUDIO 2013\PROJECTS\PTAM - SIFT DEPTHMAP\PTAM\X64\RELEASE\VC120.PDB
C:\USERS\VCL\DOCUMENTS\VISUAL STUDIO 2013\PROJECTS\PTAM - SIFT DEPTHMAP\PTAM\X64\RELEASE\KEYFRAME.OBJ
^C:\USERS\VCL\DOCUMENTS\VISUAL STUDIO 2013\PROJECTS\PTAM - SIFT DEPTHMAP\PTAM\SRC\MAP.CPP
C:\USERS\VCL\DOCUMENTS\VISUAL STUDIO 2013\PROJECTS\PTAM - SIFT DEPTHMAP\PTAM\X64\RELEASE\VC120.PDB
C:\USERS\VCL\DOCUMENTS\VISUAL STUDIO 2013\PROJECTS\PTAM - SIFT DEPTHMAP\PTAM\X64\RELEASE\MAP.OBJ
